X_RANGE 0.78
Y_RANGE 203061912.00
ORDER (859)makeNormal/evalPictur... 1
ORDER (789)evalPicture.geometry/... 2
ORDER (852)surfGeom/surfCell/iso... 3
ORDER (772)readAstroData/evalPic... 4
ORDER (793)drawComponent/evalVie... 5
ORDER (828)cubicPoints/evalPictu... 6
ORDER (802)zipWith8/cubicGrid.zi... 7
ORDER (827)zipWith8/cubicGrid.zi... 8
ORDER (820)isosurface/evalPictur... 9
SHADE (859)makeNormal/evalPictur... 0.00
SHADE (789)evalPicture.geometry/... 0.00
SHADE (852)surfGeom/surfCell/iso... 0.00
SHADE (772)readAstroData/evalPic... 0.00
SHADE (793)drawComponent/evalVie... 0.10
SHADE (828)cubicPoints/evalPictu... 0.10
SHADE (802)zipWith8/cubicGrid.zi... 0.10
SHADE (827)zipWith8/cubicGrid.zi... 0.10
SHADE (820)isosurface/evalPictur... 0.00
