%!PS-Adobe-2.0
%%Title: Viewer.exe +RTS -prof -hc
%%Creator: hp2ps (version 0.25)
%%CreationDate: Tue May 05 15:56 2015
%%EndComments
-90 rotate
-756.000000 72.000000 translate
/HE10 /Helvetica findfont 10 scalefont def
/HE12 /Helvetica findfont 12 scalefont def
newpath
0 0 moveto
0 432.000000 rlineto
648.000000 0 rlineto
0 -432.000000 rlineto
closepath
0.500000 setlinewidth
stroke
newpath
5.000000 407.000000 moveto
0 20.000000 rlineto
638.000000 0 rlineto
0 -20.000000 rlineto
closepath
0.500000 setlinewidth
stroke
HE12 setfont
11.000000 413.000000 moveto
(Viewer.exe +RTS -prof -hc) show
HE12 setfont
(90,098,522 bytes x seconds)
dup stringwidth pop
2 div
319.000000
exch sub
413.000000 moveto
show
HE12 setfont
(Tue May 05 15:56 2015)
dup stringwidth pop
637.000000
exch sub
413.000000 moveto
show
45.000000 20.000000 moveto
421.133842 0 rlineto
0.500000 setlinewidth
stroke
HE10 setfont
(seconds)
dup stringwidth pop
466.133842
exch sub
5.000000 moveto
show
45.000000 20.000000 moveto
0 -4 rlineto
stroke
HE10 setfont
(0.0)
dup stringwidth pop
2 div
45.000000 exch sub
5.000000 moveto
show
152.983036 20.000000 moveto
0 -4 rlineto
stroke
HE10 setfont
(0.2)
dup stringwidth pop
2 div
152.983036 exch sub
5.000000 moveto
show
260.966073 20.000000 moveto
0 -4 rlineto
stroke
HE10 setfont
(0.4)
dup stringwidth pop
2 div
260.966073 exch sub
5.000000 moveto
show
368.949109 20.000000 moveto
0 -4 rlineto
stroke
HE10 setfont
(0.6)
dup stringwidth pop
2 div
368.949109 exch sub
5.000000 moveto
show
45.000000 20.000000 moveto
0 382.000000 rlineto
0.500000 setlinewidth
stroke
gsave
HE10 setfont
(bytes)
dup stringwidth pop
402.000000
exch sub
40.000000 exch
translate
90 rotate
0 0 moveto
show
grestore
45.000000 20.000000 moveto
-4 0 rlineto
stroke
HE10 setfont
(0M)
dup stringwidth
2 div
20.000000 exch sub
exch
40.000000 exch sub
exch
moveto
show
45.000000 57.623993 moveto
-4 0 rlineto
stroke
HE10 setfont
(20M)
dup stringwidth
2 div
57.623993 exch sub
exch
40.000000 exch sub
exch
moveto
show
45.000000 95.247986 moveto
-4 0 rlineto
stroke
HE10 setfont
(40M)
dup stringwidth
2 div
95.247986 exch sub
exch
40.000000 exch sub
exch
moveto
show
45.000000 132.871980 moveto
-4 0 rlineto
stroke
HE10 setfont
(60M)
dup stringwidth
2 div
132.871980 exch sub
exch
40.000000 exch sub
exch
moveto
show
45.000000 170.495973 moveto
-4 0 rlineto
stroke
HE10 setfont
(80M)
dup stringwidth
2 div
170.495973 exch sub
exch
40.000000 exch sub
exch
moveto
show
45.000000 208.119966 moveto
-4 0 rlineto
stroke
HE10 setfont
(100M)
dup stringwidth
2 div
208.119966 exch sub
exch
40.000000 exch sub
exch
moveto
show
45.000000 245.743959 moveto
-4 0 rlineto
stroke
HE10 setfont
(120M)
dup stringwidth
2 div
245.743959 exch sub
exch
40.000000 exch sub
exch
moveto
show
45.000000 283.367953 moveto
-4 0 rlineto
stroke
HE10 setfont
(140M)
dup stringwidth
2 div
283.367953 exch sub
exch
40.000000 exch sub
exch
moveto
show
45.000000 320.991946 moveto
-4 0 rlineto
stroke
HE10 setfont
(160M)
dup stringwidth
2 div
320.991946 exch sub
exch
40.000000 exch sub
exch
moveto
show
45.000000 358.615939 moveto
-4 0 rlineto
stroke
HE10 setfont
(180M)
dup stringwidth
2 div
358.615939 exch sub
exch
40.000000 exch sub
exch
moveto
show
471.133842 51.200000 moveto
0 14 rlineto
14 0 rlineto
0 -14 rlineto
closepath
gsave
0.000000 0.000000 0.000000 setrgbcolor
fill
grestore
stroke
HE10 setfont
490.133842 53.200000 moveto
((859)makeNormal/evalPictur...) show
471.133842 89.400000 moveto
0 14 rlineto
14 0 rlineto
0 -14 rlineto
closepath
gsave
0.000000 0.000000 1.000000 setrgbcolor
fill
grestore
stroke
HE10 setfont
490.133842 91.400000 moveto
((789)evalPicture.geometry/...) show
471.133842 127.600000 moveto
0 14 rlineto
14 0 rlineto
0 -14 rlineto
closepath
gsave
0.000000 1.000000 0.000000 setrgbcolor
fill
grestore
stroke
HE10 setfont
490.133842 129.600000 moveto
((852)surfGeom/surfCell/iso...) show
471.133842 165.800000 moveto
0 14 rlineto
14 0 rlineto
0 -14 rlineto
closepath
gsave
0.000000 1.000000 1.000000 setrgbcolor
fill
grestore
stroke
HE10 setfont
490.133842 167.800000 moveto
((772)readAstroData/evalPic...) show
471.133842 204.000000 moveto
0 14 rlineto
14 0 rlineto
0 -14 rlineto
closepath
gsave
1.000000 0.000000 0.000000 setrgbcolor
fill
grestore
stroke
HE10 setfont
490.133842 206.000000 moveto
((793)drawComponent/evalVie...) show
471.133842 242.200000 moveto
0 14 rlineto
14 0 rlineto
0 -14 rlineto
closepath
gsave
1.000000 0.000000 1.000000 setrgbcolor
fill
grestore
stroke
HE10 setfont
490.133842 244.200000 moveto
((828)cubicPoints/evalPictu...) show
471.133842 280.400000 moveto
0 14 rlineto
14 0 rlineto
0 -14 rlineto
closepath
gsave
1.000000 1.000000 0.000000 setrgbcolor
fill
grestore
stroke
HE10 setfont
490.133842 282.400000 moveto
((802)zipWith8/cubicGrid.zi...) show
471.133842 318.600000 moveto
0 14 rlineto
14 0 rlineto
0 -14 rlineto
closepath
gsave
1.000000 1.000000 1.000000 setrgbcolor
fill
grestore
stroke
HE10 setfont
490.133842 320.600000 moveto
((827)zipWith8/cubicGrid.zi...) show
471.133842 356.800000 moveto
0 14 rlineto
14 0 rlineto
0 -14 rlineto
closepath
gsave
0.000000 0.000000 0.500000 setrgbcolor
fill
grestore
stroke
HE10 setfont
490.133842 358.800000 moveto
((820)isosurface/evalPictur...) show
45.000000 20.000000 moveto
45.000000 20.000000 lineto
50.399152 20.000000 lineto
93.592366 20.000000 lineto
179.978795 20.000000 lineto
228.571162 20.000000 lineto
277.163528 20.000000 lineto
331.155046 20.000000 lineto
390.545716 20.000000 lineto
439.138083 20.000000 lineto
466.133842 20.000000 lineto
466.133842 20.000000 lineto
466.133842 20.000000 lineto
439.138083 32.303347 lineto
390.545716 29.666958 lineto
331.155046 26.607074 lineto
277.163528 23.307600 lineto
228.571162 20.827728 lineto
179.978795 20.000000 lineto
93.592366 20.000000 lineto
50.399152 20.000000 lineto
45.000000 20.000000 lineto
closepath
gsave
0.000000 0.000000 0.000000 setrgbcolor
fill
grestore
stroke
45.000000 20.000000 moveto
45.000000 20.000000 lineto
50.399152 20.000000 lineto
93.592366 20.000000 lineto
179.978795 20.000000 lineto
228.571162 20.827728 lineto
277.163528 23.307600 lineto
331.155046 26.607074 lineto
390.545716 29.666958 lineto
439.138083 32.303347 lineto
466.133842 20.000000 lineto
466.133842 20.000000 lineto
466.133842 20.000000 lineto
439.138083 44.606754 lineto
390.545716 39.333977 lineto
331.155046 33.214209 lineto
277.163528 26.615261 lineto
228.571162 21.655516 lineto
179.978795 20.000030 lineto
93.592366 20.000030 lineto
50.399152 20.000000 lineto
45.000000 20.000000 lineto
closepath
gsave
0.000000 0.000000 1.000000 setrgbcolor
fill
grestore
stroke
45.000000 20.000000 moveto
45.000000 20.000000 lineto
50.399152 20.000000 lineto
93.592366 20.000030 lineto
179.978795 20.000030 lineto
228.571162 21.655516 lineto
277.163528 26.615261 lineto
331.155046 33.214209 lineto
390.545716 39.333977 lineto
439.138083 44.606754 lineto
466.133842 20.000000 lineto
466.133842 20.000000 lineto
466.133842 20.000000 lineto
439.138083 81.516794 lineto
390.545716 68.334852 lineto
331.155046 53.035431 lineto
277.163528 36.538063 lineto
228.571162 24.138699 lineto
179.978795 20.000030 lineto
93.592366 20.000030 lineto
50.399152 20.000000 lineto
45.000000 20.000000 lineto
closepath
gsave
0.000000 1.000000 0.000000 setrgbcolor
fill
grestore
stroke
45.000000 20.000000 moveto
45.000000 20.000000 lineto
50.399152 20.000000 lineto
93.592366 20.000030 lineto
179.978795 20.000030 lineto
228.571162 24.138699 lineto
277.163528 36.538063 lineto
331.155046 53.035431 lineto
390.545716 68.334852 lineto
439.138083 81.516794 lineto
466.133842 20.000000 lineto
466.133842 20.000000 lineto
466.133842 20.000000 lineto
439.138083 82.797695 lineto
390.545716 79.770725 lineto
331.155046 73.718364 lineto
277.163528 66.582597 lineto
228.571162 63.859673 lineto
179.978795 50.391473 lineto
93.592366 31.716804 lineto
50.399152 20.000000 lineto
45.000000 20.000000 lineto
closepath
gsave
0.000000 1.000000 1.000000 setrgbcolor
fill
grestore
stroke
45.000000 20.000000 moveto
45.000000 20.000000 lineto
50.399152 20.000000 lineto
93.592366 31.716804 lineto
179.978795 50.391473 lineto
228.571162 63.859673 lineto
277.163528 66.582597 lineto
331.155046 73.718364 lineto
390.545716 79.770725 lineto
439.138083 82.797695 lineto
466.133842 20.000000 lineto
466.133842 20.000000 lineto
466.133842 20.000000 lineto
439.138083 149.236129 lineto
390.545716 131.972661 lineto
331.155046 109.396926 lineto
277.163528 84.444001 lineto
228.571162 68.329765 lineto
179.978795 50.391834 lineto
93.592366 31.717165 lineto
50.399152 20.000000 lineto
45.000000 20.000000 lineto
closepath
gsave
1.000000 0.000000 0.000000 setrgbcolor
fill
grestore
stroke
45.000000 20.000000 moveto
45.000000 20.000000 lineto
50.399152 20.000000 lineto
93.592366 31.717165 lineto
179.978795 50.391834 lineto
228.571162 68.329765 lineto
277.163528 84.444001 lineto
331.155046 109.396926 lineto
390.545716 131.972661 lineto
439.138083 149.236129 lineto
466.133842 20.000000 lineto
466.133842 20.000000 lineto
466.133842 20.000000 lineto
439.138083 151.296931 lineto
390.545716 146.283473 lineto
331.155046 134.844681 lineto
277.163528 121.187171 lineto
228.571162 116.730594 lineto
179.978795 86.938562 lineto
93.592366 45.753157 lineto
50.399152 20.000000 lineto
45.000000 20.000000 lineto
closepath
gsave
1.000000 0.000000 1.000000 setrgbcolor
fill
grestore
stroke
45.000000 20.000000 moveto
45.000000 20.000000 lineto
50.399152 20.000000 lineto
93.592366 45.753157 lineto
179.978795 86.938562 lineto
228.571162 116.730594 lineto
277.163528 121.187171 lineto
331.155046 134.844681 lineto
390.545716 146.283473 lineto
439.138083 151.296931 lineto
466.133842 20.000000 lineto
466.133842 20.000000 lineto
466.133842 20.000000 lineto
439.138083 153.450799 lineto
390.545716 170.285715 lineto
331.155046 178.706582 lineto
277.163528 185.192401 lineto
228.571162 201.533269 lineto
179.978795 149.855480 lineto
93.592366 68.500939 lineto
50.399152 20.000000 lineto
45.000000 20.000000 lineto
closepath
gsave
1.000000 1.000000 0.000000 setrgbcolor
fill
grestore
stroke
45.000000 20.000000 moveto
45.000000 20.000000 lineto
50.399152 20.000000 lineto
93.592366 68.500939 lineto
179.978795 149.855480 lineto
228.571162 201.533269 lineto
277.163528 185.192401 lineto
331.155046 178.706582 lineto
390.545716 170.285715 lineto
439.138083 153.450799 lineto
466.133842 20.000000 lineto
466.133842 20.000000 lineto
466.133842 20.000000 lineto
439.138083 155.606202 lineto
390.545716 194.292140 lineto
331.155046 222.569701 lineto
277.163528 249.202748 lineto
228.571162 286.338788 lineto
179.978795 212.772399 lineto
93.592366 91.248722 lineto
50.399152 20.000000 lineto
45.000000 20.000000 lineto
closepath
gsave
1.000000 1.000000 1.000000 setrgbcolor
fill
grestore
stroke
45.000000 20.000000 moveto
45.000000 20.000000 lineto
50.399152 20.000000 lineto
93.592366 91.248722 lineto
179.978795 212.772399 lineto
228.571162 286.338788 lineto
277.163528 249.202748 lineto
331.155046 222.569701 lineto
390.545716 194.292140 lineto
439.138083 155.606202 lineto
466.133842 20.000000 lineto
466.133842 20.000000 lineto
466.133842 20.000000 lineto
439.138083 158.535019 lineto
390.545716 227.007722 lineto
331.155046 282.394349 lineto
277.163528 336.510654 lineto
228.571162 402.000000 lineto
179.978795 298.579559 lineto
93.592366 122.272684 lineto
50.399152 20.000000 lineto
45.000000 20.000000 lineto
closepath
gsave
0.000000 0.000000 0.500000 setrgbcolor
fill
grestore
stroke
showpage
