%!PS-Adobe-2.0
%%Title: Main.exe +RTS -p -hy
%%Creator: hp2ps (version 0.25)
%%CreationDate: Mon Apr 20 01:47 2015
%%EndComments
-90 rotate
-756.000000 72.000000 translate
/HE10 /Helvetica findfont 10 scalefont def
/HE12 /Helvetica findfont 12 scalefont def
newpath
0 0 moveto
0 432.000000 rlineto
648.000000 0 rlineto
0 -432.000000 rlineto
closepath
0.500000 setlinewidth
stroke
newpath
5.000000 407.000000 moveto
0 20.000000 rlineto
638.000000 0 rlineto
0 -20.000000 rlineto
closepath
0.500000 setlinewidth
stroke
HE12 setfont
11.000000 413.000000 moveto
(Main.exe +RTS -p -hy) show
HE12 setfont
(385,894 bytes x seconds)
dup stringwidth pop
2 div
319.000000
exch sub
413.000000 moveto
show
HE12 setfont
(Mon Apr 20 01:47 2015)
dup stringwidth pop
637.000000
exch sub
413.000000 moveto
show
45.000000 20.000000 moveto
473.858257 0 rlineto
0.500000 setlinewidth
stroke
HE10 setfont
(seconds)
dup stringwidth pop
518.858257
exch sub
5.000000 moveto
show
45.000000 20.000000 moveto
0 -4 rlineto
stroke
HE10 setfont
(0.0)
dup stringwidth pop
2 div
45.000000 exch sub
5.000000 moveto
show
98.123123 20.000000 moveto
0 -4 rlineto
stroke
HE10 setfont
(0.5)
dup stringwidth pop
2 div
98.123123 exch sub
5.000000 moveto
show
151.246246 20.000000 moveto
0 -4 rlineto
stroke
HE10 setfont
(1.0)
dup stringwidth pop
2 div
151.246246 exch sub
5.000000 moveto
show
204.369369 20.000000 moveto
0 -4 rlineto
stroke
HE10 setfont
(1.5)
dup stringwidth pop
2 div
204.369369 exch sub
5.000000 moveto
show
257.492492 20.000000 moveto
0 -4 rlineto
stroke
HE10 setfont
(2.0)
dup stringwidth pop
2 div
257.492492 exch sub
5.000000 moveto
show
310.615615 20.000000 moveto
0 -4 rlineto
stroke
HE10 setfont
(2.5)
dup stringwidth pop
2 div
310.615615 exch sub
5.000000 moveto
show
363.738738 20.000000 moveto
0 -4 rlineto
stroke
HE10 setfont
(3.0)
dup stringwidth pop
2 div
363.738738 exch sub
5.000000 moveto
show
416.861861 20.000000 moveto
0 -4 rlineto
stroke
HE10 setfont
(3.5)
dup stringwidth pop
2 div
416.861861 exch sub
5.000000 moveto
show
45.000000 20.000000 moveto
0 382.000000 rlineto
0.500000 setlinewidth
stroke
gsave
HE10 setfont
(bytes)
dup stringwidth pop
402.000000
exch sub
40.000000 exch
translate
90 rotate
0 0 moveto
show
grestore
45.000000 20.000000 moveto
-4 0 rlineto
stroke
HE10 setfont
(0k)
dup stringwidth
2 div
20.000000 exch sub
exch
40.000000 exch sub
exch
moveto
show
45.000000 91.831516 moveto
-4 0 rlineto
stroke
HE10 setfont
(20k)
dup stringwidth
2 div
91.831516 exch sub
exch
40.000000 exch sub
exch
moveto
show
45.000000 163.663031 moveto
-4 0 rlineto
stroke
HE10 setfont
(40k)
dup stringwidth
2 div
163.663031 exch sub
exch
40.000000 exch sub
exch
moveto
show
45.000000 235.494547 moveto
-4 0 rlineto
stroke
HE10 setfont
(60k)
dup stringwidth
2 div
235.494547 exch sub
exch
40.000000 exch sub
exch
moveto
show
45.000000 307.326062 moveto
-4 0 rlineto
stroke
HE10 setfont
(80k)
dup stringwidth
2 div
307.326062 exch sub
exch
40.000000 exch sub
exch
moveto
show
523.858257 31.190476 moveto
0 14 rlineto
14 0 rlineto
0 -14 rlineto
closepath
gsave
0.000000 0.000000 0.000000 setrgbcolor
fill
grestore
stroke
HE10 setfont
542.858257 33.190476 moveto
(OTHER) show
523.858257 49.380952 moveto
0 14 rlineto
14 0 rlineto
0 -14 rlineto
closepath
gsave
0.000000 0.000000 1.000000 setrgbcolor
fill
grestore
stroke
HE10 setfont
542.858257 51.380952 moveto
(->IO) show
523.858257 67.571429 moveto
0 14 rlineto
14 0 rlineto
0 -14 rlineto
closepath
gsave
0.000000 1.000000 0.000000 setrgbcolor
fill
grestore
stroke
HE10 setfont
542.858257 69.571429 moveto
(IO) show
523.858257 85.761905 moveto
0 14 rlineto
14 0 rlineto
0 -14 rlineto
closepath
gsave
0.000000 1.000000 1.000000 setrgbcolor
fill
grestore
stroke
HE10 setfont
542.858257 87.761905 moveto
(->>>>>IResult) show
523.858257 103.952381 moveto
0 14 rlineto
14 0 rlineto
0 -14 rlineto
closepath
gsave
1.000000 0.000000 0.000000 setrgbcolor
fill
grestore
stroke
HE10 setfont
542.858257 105.952381 moveto
(Word32) show
523.858257 122.142857 moveto
0 14 rlineto
14 0 rlineto
0 -14 rlineto
closepath
gsave
1.000000 0.000000 1.000000 setrgbcolor
fill
grestore
stroke
HE10 setfont
542.858257 124.142857 moveto
(ForeignPtrContents) show
523.858257 140.333333 moveto
0 14 rlineto
14 0 rlineto
0 -14 rlineto
closepath
gsave
1.000000 1.000000 0.000000 setrgbcolor
fill
grestore
stroke
HE10 setfont
542.858257 142.333333 moveto
(Text) show
523.858257 158.523810 moveto
0 14 rlineto
14 0 rlineto
0 -14 rlineto
closepath
gsave
1.000000 1.000000 1.000000 setrgbcolor
fill
grestore
stroke
HE10 setfont
542.858257 160.523810 moveto
(ShaderProgram) show
523.858257 176.714286 moveto
0 14 rlineto
14 0 rlineto
0 -14 rlineto
closepath
gsave
0.000000 0.000000 0.500000 setrgbcolor
fill
grestore
stroke
HE10 setfont
542.858257 178.714286 moveto
(V4) show
523.858257 194.904762 moveto
0 14 rlineto
14 0 rlineto
0 -14 rlineto
closepath
gsave
0.000000 0.500000 0.000000 setrgbcolor
fill
grestore
stroke
HE10 setfont
542.858257 196.904762 moveto
(PAP) show
523.858257 213.095238 moveto
0 14 rlineto
14 0 rlineto
0 -14 rlineto
closepath
gsave
0.000000 0.500000 1.000000 setrgbcolor
fill
grestore
stroke
HE10 setfont
542.858257 215.095238 moveto
(Map) show
523.858257 231.285714 moveto
0 14 rlineto
14 0 rlineto
0 -14 rlineto
closepath
gsave
0.000000 1.000000 0.500000 setrgbcolor
fill
grestore
stroke
HE10 setfont
542.858257 233.285714 moveto
(FunPtr) show
523.858257 249.476190 moveto
0 14 rlineto
14 0 rlineto
0 -14 rlineto
closepath
gsave
0.500000 0.000000 0.000000 setrgbcolor
fill
grestore
stroke
HE10 setfont
542.858257 251.476190 moveto
(AttribLocation) show
523.858257 267.666667 moveto
0 14 rlineto
14 0 rlineto
0 -14 rlineto
closepath
gsave
0.500000 0.000000 1.000000 setrgbcolor
fill
grestore
stroke
HE10 setfont
542.858257 269.666667 moveto
(ByteString) show
523.858257 285.857143 moveto
0 14 rlineto
14 0 rlineto
0 -14 rlineto
closepath
gsave
0.500000 0.900000 0.000000 setrgbcolor
fill
grestore
stroke
HE10 setfont
542.858257 287.857143 moveto
(Float) show
523.858257 304.047619 moveto
0 14 rlineto
14 0 rlineto
0 -14 rlineto
closepath
gsave
0.500000 1.000000 1.000000 setrgbcolor
fill
grestore
stroke
HE10 setfont
542.858257 306.047619 moveto
(Int32) show
523.858257 322.238095 moveto
0 14 rlineto
14 0 rlineto
0 -14 rlineto
closepath
gsave
1.000000 0.000000 0.500000 setrgbcolor
fill
grestore
stroke
HE10 setfont
542.858257 324.238095 moveto
(*) show
523.858257 340.428571 moveto
0 14 rlineto
14 0 rlineto
0 -14 rlineto
closepath
gsave
1.000000 0.500000 0.000000 setrgbcolor
fill
grestore
stroke
HE10 setfont
542.858257 342.428571 moveto
((,)) show
523.858257 358.619048 moveto
0 14 rlineto
14 0 rlineto
0 -14 rlineto
closepath
gsave
1.000000 0.500000 1.000000 setrgbcolor
fill
grestore
stroke
HE10 setfont
542.858257 360.619048 moveto
([]) show
523.858257 376.809524 moveto
0 14 rlineto
14 0 rlineto
0 -14 rlineto
closepath
gsave
1.000000 1.000000 0.500000 setrgbcolor
fill
grestore
stroke
HE10 setfont
542.858257 378.809524 moveto
(ARR_WORDS) show
45.000000 20.000000 moveto
45.000000 20.000000 lineto
51.374775 20.000000 lineto
60.936937 20.000000 lineto
69.436637 20.000000 lineto
78.998799 20.000000 lineto
82.186186 20.000000 lineto
92.810811 20.000000 lineto
102.372973 20.000000 lineto
114.060060 20.000000 lineto
124.684685 20.000000 lineto
135.309309 20.000000 lineto
145.933934 20.000000 lineto
157.621021 20.000000 lineto
166.120720 20.000000 lineto
175.682883 20.000000 lineto
182.057657 20.000000 lineto
188.432432 20.000000 lineto
199.057057 20.000000 lineto
208.619219 20.000000 lineto
220.306306 20.000000 lineto
230.930931 20.000000 lineto
241.555555 20.000000 lineto
250.055255 20.000000 lineto
258.554954 20.000000 lineto
270.242042 20.000000 lineto
276.616816 20.000000 lineto
285.116516 20.000000 lineto
296.803603 20.000000 lineto
306.365765 20.000000 lineto
316.990390 20.000000 lineto
326.552552 20.000000 lineto
337.177177 20.000000 lineto
347.801801 20.000000 lineto
359.488888 20.000000 lineto
370.113513 20.000000 lineto
378.613212 20.000000 lineto
388.175375 20.000000 lineto
399.862462 20.000000 lineto
409.424624 20.000000 lineto
420.049248 20.000000 lineto
431.736335 20.000000 lineto
441.298498 20.000000 lineto
452.985585 20.000000 lineto
462.547747 20.000000 lineto
473.172371 20.000000 lineto
479.547146 20.000000 lineto
489.109308 20.000000 lineto
499.733933 20.000000 lineto
507.171170 20.000000 lineto
517.795795 20.000000 lineto
518.858257 20.000000 lineto
518.858257 20.000000 lineto
518.858257 20.000000 lineto
517.795795 23.850169 lineto
507.171170 23.850169 lineto
499.733933 23.850169 lineto
489.109308 24.999473 lineto
479.547146 23.850169 lineto
473.172371 23.850169 lineto
462.547747 23.965100 lineto
452.985585 23.850169 lineto
441.298498 23.965100 lineto
431.736335 23.850169 lineto
420.049248 23.850169 lineto
409.424624 23.965100 lineto
399.862462 23.965100 lineto
388.175375 23.850169 lineto
378.613212 23.965100 lineto
370.113513 23.965100 lineto
359.488888 23.965100 lineto
347.801801 23.850169 lineto
337.177177 23.850169 lineto
326.552552 23.850169 lineto
316.990390 23.850169 lineto
306.365765 23.850169 lineto
296.803603 23.965100 lineto
285.116516 23.850169 lineto
276.616816 23.850169 lineto
270.242042 23.965100 lineto
258.554954 23.850169 lineto
250.055255 23.850169 lineto
241.555555 23.965100 lineto
230.930931 24.137495 lineto
220.306306 23.850169 lineto
208.619219 24.281158 lineto
199.057057 23.850169 lineto
188.432432 23.965100 lineto
182.057657 23.850169 lineto
175.682883 23.993832 lineto
166.120720 24.855810 lineto
157.621021 23.850169 lineto
145.933934 23.965100 lineto
135.309309 23.850169 lineto
124.684685 23.850169 lineto
114.060060 23.850169 lineto
102.372973 24.712147 lineto
92.810811 23.850169 lineto
82.186186 23.850169 lineto
78.998799 23.907634 lineto
69.436637 23.907634 lineto
60.936937 23.907634 lineto
51.374775 24.252426 lineto
45.000000 20.000000 lineto
closepath
gsave
0.000000 0.000000 0.000000 setrgbcolor
fill
grestore
stroke
45.000000 20.000000 moveto
45.000000 20.000000 lineto
51.374775 24.252426 lineto
60.936937 23.907634 lineto
69.436637 23.907634 lineto
78.998799 23.907634 lineto
82.186186 23.850169 lineto
92.810811 23.850169 lineto
102.372973 24.712147 lineto
114.060060 23.850169 lineto
124.684685 23.850169 lineto
135.309309 23.850169 lineto
145.933934 23.965100 lineto
157.621021 23.850169 lineto
166.120720 24.855810 lineto
175.682883 23.993832 lineto
182.057657 23.850169 lineto
188.432432 23.965100 lineto
199.057057 23.850169 lineto
208.619219 24.281158 lineto
220.306306 23.850169 lineto
230.930931 24.137495 lineto
241.555555 23.965100 lineto
250.055255 23.850169 lineto
258.554954 23.850169 lineto
270.242042 23.965100 lineto
276.616816 23.850169 lineto
285.116516 23.850169 lineto
296.803603 23.965100 lineto
306.365765 23.850169 lineto
316.990390 23.850169 lineto
326.552552 23.850169 lineto
337.177177 23.850169 lineto
347.801801 23.850169 lineto
359.488888 23.965100 lineto
370.113513 23.965100 lineto
378.613212 23.965100 lineto
388.175375 23.850169 lineto
399.862462 23.965100 lineto
409.424624 23.965100 lineto
420.049248 23.850169 lineto
431.736335 23.850169 lineto
441.298498 23.965100 lineto
452.985585 23.850169 lineto
462.547747 23.965100 lineto
473.172371 23.850169 lineto
479.547146 23.850169 lineto
489.109308 24.999473 lineto
499.733933 23.850169 lineto
507.171170 23.850169 lineto
517.795795 23.850169 lineto
518.858257 20.000000 lineto
518.858257 20.000000 lineto
518.858257 20.000000 lineto
517.795795 24.367356 lineto
507.171170 24.367356 lineto
499.733933 24.367356 lineto
489.109308 25.574126 lineto
479.547146 24.367356 lineto
473.172371 24.367356 lineto
462.547747 24.482287 lineto
452.985585 24.367356 lineto
441.298498 24.482287 lineto
431.736335 24.367356 lineto
420.049248 24.367356 lineto
409.424624 24.482287 lineto
399.862462 24.482287 lineto
388.175375 24.367356 lineto
378.613212 24.482287 lineto
370.113513 24.482287 lineto
359.488888 24.482287 lineto
347.801801 24.367356 lineto
337.177177 24.367356 lineto
326.552552 24.367356 lineto
316.990390 24.367356 lineto
306.365765 24.367356 lineto
296.803603 24.482287 lineto
285.116516 24.367356 lineto
276.616816 24.367356 lineto
270.242042 24.482287 lineto
258.554954 24.367356 lineto
250.055255 24.367356 lineto
241.555555 24.482287 lineto
230.930931 24.712147 lineto
220.306306 24.367356 lineto
208.619219 24.855810 lineto
199.057057 24.367356 lineto
188.432432 24.482287 lineto
182.057657 24.367356 lineto
175.682883 24.568484 lineto
166.120720 25.430463 lineto
157.621021 24.367356 lineto
145.933934 24.482287 lineto
135.309309 24.367356 lineto
124.684685 24.367356 lineto
114.060060 24.367356 lineto
102.372973 25.286800 lineto
92.810811 24.367356 lineto
82.186186 24.367356 lineto
78.998799 24.424821 lineto
69.436637 24.424821 lineto
60.936937 24.424821 lineto
51.374775 24.654682 lineto
45.000000 20.000000 lineto
closepath
gsave
0.000000 0.000000 1.000000 setrgbcolor
fill
grestore
stroke
45.000000 20.000000 moveto
45.000000 20.000000 lineto
51.374775 24.654682 lineto
60.936937 24.424821 lineto
69.436637 24.424821 lineto
78.998799 24.424821 lineto
82.186186 24.367356 lineto
92.810811 24.367356 lineto
102.372973 25.286800 lineto
114.060060 24.367356 lineto
124.684685 24.367356 lineto
135.309309 24.367356 lineto
145.933934 24.482287 lineto
157.621021 24.367356 lineto
166.120720 25.430463 lineto
175.682883 24.568484 lineto
182.057657 24.367356 lineto
188.432432 24.482287 lineto
199.057057 24.367356 lineto
208.619219 24.855810 lineto
220.306306 24.367356 lineto
230.930931 24.712147 lineto
241.555555 24.482287 lineto
250.055255 24.367356 lineto
258.554954 24.367356 lineto
270.242042 24.482287 lineto
276.616816 24.367356 lineto
285.116516 24.367356 lineto
296.803603 24.482287 lineto
306.365765 24.367356 lineto
316.990390 24.367356 lineto
326.552552 24.367356 lineto
337.177177 24.367356 lineto
347.801801 24.367356 lineto
359.488888 24.482287 lineto
370.113513 24.482287 lineto
378.613212 24.482287 lineto
388.175375 24.367356 lineto
399.862462 24.482287 lineto
409.424624 24.482287 lineto
420.049248 24.367356 lineto
431.736335 24.367356 lineto
441.298498 24.482287 lineto
452.985585 24.367356 lineto
462.547747 24.482287 lineto
473.172371 24.367356 lineto
479.547146 24.367356 lineto
489.109308 25.574126 lineto
499.733933 24.367356 lineto
507.171170 24.367356 lineto
517.795795 24.367356 lineto
518.858257 20.000000 lineto
518.858257 20.000000 lineto
518.858257 20.000000 lineto
517.795795 24.942008 lineto
507.171170 24.942008 lineto
499.733933 24.942008 lineto
489.109308 26.148778 lineto
479.547146 24.942008 lineto
473.172371 24.942008 lineto
462.547747 25.056939 lineto
452.985585 24.942008 lineto
441.298498 25.056939 lineto
431.736335 24.942008 lineto
420.049248 24.942008 lineto
409.424624 25.056939 lineto
399.862462 25.056939 lineto
388.175375 24.942008 lineto
378.613212 25.056939 lineto
370.113513 25.056939 lineto
359.488888 25.056939 lineto
347.801801 24.942008 lineto
337.177177 24.942008 lineto
326.552552 24.942008 lineto
316.990390 24.942008 lineto
306.365765 24.942008 lineto
296.803603 25.056939 lineto
285.116516 24.942008 lineto
276.616816 24.942008 lineto
270.242042 25.056939 lineto
258.554954 24.942008 lineto
250.055255 24.942008 lineto
241.555555 25.056939 lineto
230.930931 25.286800 lineto
220.306306 24.942008 lineto
208.619219 25.430463 lineto
199.057057 24.942008 lineto
188.432432 25.056939 lineto
182.057657 24.942008 lineto
175.682883 25.143137 lineto
166.120720 26.005115 lineto
157.621021 24.942008 lineto
145.933934 25.056939 lineto
135.309309 24.942008 lineto
124.684685 24.942008 lineto
114.060060 24.942008 lineto
102.372973 25.861452 lineto
92.810811 24.942008 lineto
82.186186 24.942008 lineto
78.998799 24.999473 lineto
69.436637 24.999473 lineto
60.936937 24.999473 lineto
51.374775 25.459195 lineto
45.000000 20.000000 lineto
closepath
gsave
0.000000 1.000000 0.000000 setrgbcolor
fill
grestore
stroke
45.000000 20.000000 moveto
45.000000 20.000000 lineto
51.374775 25.459195 lineto
60.936937 24.999473 lineto
69.436637 24.999473 lineto
78.998799 24.999473 lineto
82.186186 24.942008 lineto
92.810811 24.942008 lineto
102.372973 25.861452 lineto
114.060060 24.942008 lineto
124.684685 24.942008 lineto
135.309309 24.942008 lineto
145.933934 25.056939 lineto
157.621021 24.942008 lineto
166.120720 26.005115 lineto
175.682883 25.143137 lineto
182.057657 24.942008 lineto
188.432432 25.056939 lineto
199.057057 24.942008 lineto
208.619219 25.430463 lineto
220.306306 24.942008 lineto
230.930931 25.286800 lineto
241.555555 25.056939 lineto
250.055255 24.942008 lineto
258.554954 24.942008 lineto
270.242042 25.056939 lineto
276.616816 24.942008 lineto
285.116516 24.942008 lineto
296.803603 25.056939 lineto
306.365765 24.942008 lineto
316.990390 24.942008 lineto
326.552552 24.942008 lineto
337.177177 24.942008 lineto
347.801801 24.942008 lineto
359.488888 25.056939 lineto
370.113513 25.056939 lineto
378.613212 25.056939 lineto
388.175375 24.942008 lineto
399.862462 25.056939 lineto
409.424624 25.056939 lineto
420.049248 24.942008 lineto
431.736335 24.942008 lineto
441.298498 25.056939 lineto
452.985585 24.942008 lineto
462.547747 25.056939 lineto
473.172371 24.942008 lineto
479.547146 24.942008 lineto
489.109308 26.148778 lineto
499.733933 24.942008 lineto
507.171170 24.942008 lineto
517.795795 24.942008 lineto
518.858257 20.000000 lineto
518.858257 20.000000 lineto
518.858257 20.000000 lineto
517.795795 25.545393 lineto
507.171170 25.545393 lineto
499.733933 25.545393 lineto
489.109308 26.752162 lineto
479.547146 25.545393 lineto
473.172371 25.545393 lineto
462.547747 25.660323 lineto
452.985585 25.545393 lineto
441.298498 25.660323 lineto
431.736335 25.545393 lineto
420.049248 25.545393 lineto
409.424624 25.660323 lineto
399.862462 25.660323 lineto
388.175375 25.545393 lineto
378.613212 25.660323 lineto
370.113513 25.660323 lineto
359.488888 25.660323 lineto
347.801801 25.545393 lineto
337.177177 25.545393 lineto
326.552552 25.545393 lineto
316.990390 25.545393 lineto
306.365765 25.545393 lineto
296.803603 25.660323 lineto
285.116516 25.545393 lineto
276.616816 25.545393 lineto
270.242042 25.660323 lineto
258.554954 25.545393 lineto
250.055255 25.545393 lineto
241.555555 25.660323 lineto
230.930931 25.890184 lineto
220.306306 25.545393 lineto
208.619219 26.033847 lineto
199.057057 25.545393 lineto
188.432432 25.660323 lineto
182.057657 25.545393 lineto
175.682883 25.746521 lineto
166.120720 26.608499 lineto
157.621021 25.545393 lineto
145.933934 25.660323 lineto
135.309309 25.545393 lineto
124.684685 25.545393 lineto
114.060060 25.545393 lineto
102.372973 26.464836 lineto
92.810811 25.545393 lineto
82.186186 25.545393 lineto
78.998799 25.602858 lineto
69.436637 25.602858 lineto
60.936937 25.602858 lineto
51.374775 26.062580 lineto
45.000000 20.000000 lineto
closepath
gsave
0.000000 1.000000 1.000000 setrgbcolor
fill
grestore
stroke
45.000000 20.000000 moveto
45.000000 20.000000 lineto
51.374775 26.062580 lineto
60.936937 25.602858 lineto
69.436637 25.602858 lineto
78.998799 25.602858 lineto
82.186186 25.545393 lineto
92.810811 25.545393 lineto
102.372973 26.464836 lineto
114.060060 25.545393 lineto
124.684685 25.545393 lineto
135.309309 25.545393 lineto
145.933934 25.660323 lineto
157.621021 25.545393 lineto
166.120720 26.608499 lineto
175.682883 25.746521 lineto
182.057657 25.545393 lineto
188.432432 25.660323 lineto
199.057057 25.545393 lineto
208.619219 26.033847 lineto
220.306306 25.545393 lineto
230.930931 25.890184 lineto
241.555555 25.660323 lineto
250.055255 25.545393 lineto
258.554954 25.545393 lineto
270.242042 25.660323 lineto
276.616816 25.545393 lineto
285.116516 25.545393 lineto
296.803603 25.660323 lineto
306.365765 25.545393 lineto
316.990390 25.545393 lineto
326.552552 25.545393 lineto
337.177177 25.545393 lineto
347.801801 25.545393 lineto
359.488888 25.660323 lineto
370.113513 25.660323 lineto
378.613212 25.660323 lineto
388.175375 25.545393 lineto
399.862462 25.660323 lineto
409.424624 25.660323 lineto
420.049248 25.545393 lineto
431.736335 25.545393 lineto
441.298498 25.660323 lineto
452.985585 25.545393 lineto
462.547747 25.660323 lineto
473.172371 25.545393 lineto
479.547146 25.545393 lineto
489.109308 26.752162 lineto
499.733933 25.545393 lineto
507.171170 25.545393 lineto
517.795795 25.545393 lineto
518.858257 20.000000 lineto
518.858257 20.000000 lineto
518.858257 20.000000 lineto
517.795795 26.263708 lineto
507.171170 26.263708 lineto
499.733933 26.263708 lineto
489.109308 27.614141 lineto
479.547146 26.407371 lineto
473.172371 26.263708 lineto
462.547747 26.694697 lineto
452.985585 26.177510 lineto
441.298498 26.637232 lineto
431.736335 26.263708 lineto
420.049248 26.407371 lineto
409.424624 26.637232 lineto
399.862462 26.752162 lineto
388.175375 26.177510 lineto
378.613212 26.752162 lineto
370.113513 26.637232 lineto
359.488888 26.694697 lineto
347.801801 26.263708 lineto
337.177177 26.263708 lineto
326.552552 26.263708 lineto
316.990390 26.177510 lineto
306.365765 26.464836 lineto
296.803603 26.522302 lineto
285.116516 26.263708 lineto
276.616816 26.349906 lineto
270.242042 26.637232 lineto
258.554954 26.263708 lineto
250.055255 26.464836 lineto
241.555555 26.694697 lineto
230.930931 26.924558 lineto
220.306306 26.263708 lineto
208.619219 26.780895 lineto
199.057057 26.263708 lineto
188.432432 26.637232 lineto
182.057657 26.407371 lineto
175.682883 26.723430 lineto
166.120720 27.527943 lineto
157.621021 26.464836 lineto
145.933934 26.694697 lineto
135.309309 26.234976 lineto
124.684685 26.263708 lineto
114.060060 26.464836 lineto
102.372973 27.211884 lineto
92.810811 26.263708 lineto
82.186186 26.349906 lineto
78.998799 26.321173 lineto
69.436637 26.321173 lineto
60.936937 26.321173 lineto
51.374775 26.637232 lineto
45.000000 20.000000 lineto
closepath
gsave
1.000000 0.000000 0.000000 setrgbcolor
fill
grestore
stroke
45.000000 20.000000 moveto
45.000000 20.000000 lineto
51.374775 26.637232 lineto
60.936937 26.321173 lineto
69.436637 26.321173 lineto
78.998799 26.321173 lineto
82.186186 26.349906 lineto
92.810811 26.263708 lineto
102.372973 27.211884 lineto
114.060060 26.464836 lineto
124.684685 26.263708 lineto
135.309309 26.234976 lineto
145.933934 26.694697 lineto
157.621021 26.464836 lineto
166.120720 27.527943 lineto
175.682883 26.723430 lineto
182.057657 26.407371 lineto
188.432432 26.637232 lineto
199.057057 26.263708 lineto
208.619219 26.780895 lineto
220.306306 26.263708 lineto
230.930931 26.924558 lineto
241.555555 26.694697 lineto
250.055255 26.464836 lineto
258.554954 26.263708 lineto
270.242042 26.637232 lineto
276.616816 26.349906 lineto
285.116516 26.263708 lineto
296.803603 26.522302 lineto
306.365765 26.464836 lineto
316.990390 26.177510 lineto
326.552552 26.263708 lineto
337.177177 26.263708 lineto
347.801801 26.263708 lineto
359.488888 26.694697 lineto
370.113513 26.637232 lineto
378.613212 26.752162 lineto
388.175375 26.177510 lineto
399.862462 26.752162 lineto
409.424624 26.637232 lineto
420.049248 26.407371 lineto
431.736335 26.263708 lineto
441.298498 26.637232 lineto
452.985585 26.177510 lineto
462.547747 26.694697 lineto
473.172371 26.263708 lineto
479.547146 26.407371 lineto
489.109308 27.614141 lineto
499.733933 26.263708 lineto
507.171170 26.263708 lineto
517.795795 26.263708 lineto
518.858257 20.000000 lineto
518.858257 20.000000 lineto
518.858257 20.000000 lineto
517.795795 27.298082 lineto
507.171170 27.298082 lineto
499.733933 27.298082 lineto
489.109308 28.993306 lineto
479.547146 27.326815 lineto
473.172371 27.298082 lineto
462.547747 27.614141 lineto
452.985585 27.096954 lineto
441.298498 27.556675 lineto
431.736335 27.298082 lineto
420.049248 27.326815 lineto
409.424624 27.556675 lineto
399.862462 27.671606 lineto
388.175375 27.096954 lineto
378.613212 27.671606 lineto
370.113513 27.556675 lineto
359.488888 27.614141 lineto
347.801801 27.298082 lineto
337.177177 27.298082 lineto
326.552552 27.298082 lineto
316.990390 27.096954 lineto
306.365765 27.384280 lineto
296.803603 27.441745 lineto
285.116516 27.298082 lineto
276.616816 27.269349 lineto
270.242042 27.556675 lineto
258.554954 27.298082 lineto
250.055255 27.384280 lineto
241.555555 27.614141 lineto
230.930931 28.016397 lineto
220.306306 27.298082 lineto
208.619219 27.872734 lineto
199.057057 27.298082 lineto
188.432432 27.556675 lineto
182.057657 27.326815 lineto
175.682883 27.700338 lineto
166.120720 28.849643 lineto
157.621021 27.384280 lineto
145.933934 27.614141 lineto
135.309309 27.154419 lineto
124.684685 27.298082 lineto
114.060060 27.384280 lineto
102.372973 28.476119 lineto
92.810811 27.298082 lineto
82.186186 27.269349 lineto
78.998799 27.355547 lineto
69.436637 27.355547 lineto
60.936937 27.355547 lineto
51.374775 27.642873 lineto
45.000000 20.000000 lineto
closepath
gsave
1.000000 0.000000 1.000000 setrgbcolor
fill
grestore
stroke
45.000000 20.000000 moveto
45.000000 20.000000 lineto
51.374775 27.642873 lineto
60.936937 27.355547 lineto
69.436637 27.355547 lineto
78.998799 27.355547 lineto
82.186186 27.269349 lineto
92.810811 27.298082 lineto
102.372973 28.476119 lineto
114.060060 27.384280 lineto
124.684685 27.298082 lineto
135.309309 27.154419 lineto
145.933934 27.614141 lineto
157.621021 27.384280 lineto
166.120720 28.849643 lineto
175.682883 27.700338 lineto
182.057657 27.326815 lineto
188.432432 27.556675 lineto
199.057057 27.298082 lineto
208.619219 27.872734 lineto
220.306306 27.298082 lineto
230.930931 28.016397 lineto
241.555555 27.614141 lineto
250.055255 27.384280 lineto
258.554954 27.298082 lineto
270.242042 27.556675 lineto
276.616816 27.269349 lineto
285.116516 27.298082 lineto
296.803603 27.441745 lineto
306.365765 27.384280 lineto
316.990390 27.096954 lineto
326.552552 27.298082 lineto
337.177177 27.298082 lineto
347.801801 27.298082 lineto
359.488888 27.614141 lineto
370.113513 27.556675 lineto
378.613212 27.671606 lineto
388.175375 27.096954 lineto
399.862462 27.671606 lineto
409.424624 27.556675 lineto
420.049248 27.326815 lineto
431.736335 27.298082 lineto
441.298498 27.556675 lineto
452.985585 27.096954 lineto
462.547747 27.614141 lineto
473.172371 27.298082 lineto
479.547146 27.326815 lineto
489.109308 28.993306 lineto
499.733933 27.298082 lineto
507.171170 27.298082 lineto
517.795795 27.298082 lineto
518.858257 20.000000 lineto
518.858257 20.000000 lineto
518.858257 20.000000 lineto
517.795795 28.332456 lineto
507.171170 28.332456 lineto
499.733933 28.332456 lineto
489.109308 30.027680 lineto
479.547146 28.361188 lineto
473.172371 28.332456 lineto
462.547747 28.648514 lineto
452.985585 28.131328 lineto
441.298498 28.591049 lineto
431.736335 28.332456 lineto
420.049248 28.361188 lineto
409.424624 28.591049 lineto
399.862462 28.705980 lineto
388.175375 28.131328 lineto
378.613212 28.705980 lineto
370.113513 28.591049 lineto
359.488888 28.648514 lineto
347.801801 28.332456 lineto
337.177177 28.332456 lineto
326.552552 28.332456 lineto
316.990390 28.131328 lineto
306.365765 28.418654 lineto
296.803603 28.476119 lineto
285.116516 28.332456 lineto
276.616816 28.303723 lineto
270.242042 28.591049 lineto
258.554954 28.332456 lineto
250.055255 28.418654 lineto
241.555555 28.648514 lineto
230.930931 29.050771 lineto
220.306306 28.332456 lineto
208.619219 28.907108 lineto
199.057057 28.332456 lineto
188.432432 28.591049 lineto
182.057657 28.361188 lineto
175.682883 28.734712 lineto
166.120720 29.884017 lineto
157.621021 28.418654 lineto
145.933934 28.648514 lineto
135.309309 28.188793 lineto
124.684685 28.332456 lineto
114.060060 28.418654 lineto
102.372973 29.510493 lineto
92.810811 28.332456 lineto
82.186186 28.303723 lineto
78.998799 28.389921 lineto
69.436637 28.389921 lineto
60.936937 28.389921 lineto
51.374775 28.677247 lineto
45.000000 20.000000 lineto
closepath
gsave
1.000000 1.000000 0.000000 setrgbcolor
fill
grestore
stroke
45.000000 20.000000 moveto
45.000000 20.000000 lineto
51.374775 28.677247 lineto
60.936937 28.389921 lineto
69.436637 28.389921 lineto
78.998799 28.389921 lineto
82.186186 28.303723 lineto
92.810811 28.332456 lineto
102.372973 29.510493 lineto
114.060060 28.418654 lineto
124.684685 28.332456 lineto
135.309309 28.188793 lineto
145.933934 28.648514 lineto
157.621021 28.418654 lineto
166.120720 29.884017 lineto
175.682883 28.734712 lineto
182.057657 28.361188 lineto
188.432432 28.591049 lineto
199.057057 28.332456 lineto
208.619219 28.907108 lineto
220.306306 28.332456 lineto
230.930931 29.050771 lineto
241.555555 28.648514 lineto
250.055255 28.418654 lineto
258.554954 28.332456 lineto
270.242042 28.591049 lineto
276.616816 28.303723 lineto
285.116516 28.332456 lineto
296.803603 28.476119 lineto
306.365765 28.418654 lineto
316.990390 28.131328 lineto
326.552552 28.332456 lineto
337.177177 28.332456 lineto
347.801801 28.332456 lineto
359.488888 28.648514 lineto
370.113513 28.591049 lineto
378.613212 28.705980 lineto
388.175375 28.131328 lineto
399.862462 28.705980 lineto
409.424624 28.591049 lineto
420.049248 28.361188 lineto
431.736335 28.332456 lineto
441.298498 28.591049 lineto
452.985585 28.131328 lineto
462.547747 28.648514 lineto
473.172371 28.332456 lineto
479.547146 28.361188 lineto
489.109308 30.027680 lineto
499.733933 28.332456 lineto
507.171170 28.332456 lineto
517.795795 28.332456 lineto
518.858257 20.000000 lineto
518.858257 20.000000 lineto
518.858257 20.000000 lineto
517.795795 29.251899 lineto
507.171170 29.251899 lineto
499.733933 29.251899 lineto
489.109308 31.406845 lineto
479.547146 29.625423 lineto
473.172371 29.251899 lineto
462.547747 30.257540 lineto
452.985585 29.050771 lineto
441.298498 30.200075 lineto
431.736335 29.251899 lineto
420.049248 29.625423 lineto
409.424624 30.085145 lineto
399.862462 30.429936 lineto
388.175375 29.050771 lineto
378.613212 30.429936 lineto
370.113513 30.085145 lineto
359.488888 30.372471 lineto
347.801801 29.251899 lineto
337.177177 29.251899 lineto
326.552552 29.251899 lineto
316.990390 29.050771 lineto
306.365765 29.912749 lineto
296.803603 29.855284 lineto
285.116516 29.251899 lineto
276.616816 29.453027 lineto
270.242042 30.085145 lineto
258.554954 29.251899 lineto
250.055255 29.912749 lineto
241.555555 30.257540 lineto
230.930931 30.774727 lineto
220.306306 29.251899 lineto
208.619219 30.056412 lineto
199.057057 29.251899 lineto
188.432432 30.085145 lineto
182.057657 29.625423 lineto
175.682883 30.343738 lineto
166.120720 31.378112 lineto
157.621021 29.797819 lineto
145.933934 30.257540 lineto
135.309309 29.108236 lineto
124.684685 29.251899 lineto
114.060060 29.912749 lineto
102.372973 30.659797 lineto
92.810811 29.251899 lineto
82.186186 29.453027 lineto
78.998799 29.309364 lineto
69.436637 29.309364 lineto
60.936937 29.309364 lineto
51.374775 29.596690 lineto
45.000000 20.000000 lineto
closepath
gsave
1.000000 1.000000 1.000000 setrgbcolor
fill
grestore
stroke
45.000000 20.000000 moveto
45.000000 20.000000 lineto
51.374775 29.596690 lineto
60.936937 29.309364 lineto
69.436637 29.309364 lineto
78.998799 29.309364 lineto
82.186186 29.453027 lineto
92.810811 29.251899 lineto
102.372973 30.659797 lineto
114.060060 29.912749 lineto
124.684685 29.251899 lineto
135.309309 29.108236 lineto
145.933934 30.257540 lineto
157.621021 29.797819 lineto
166.120720 31.378112 lineto
175.682883 30.343738 lineto
182.057657 29.625423 lineto
188.432432 30.085145 lineto
199.057057 29.251899 lineto
208.619219 30.056412 lineto
220.306306 29.251899 lineto
230.930931 30.774727 lineto
241.555555 30.257540 lineto
250.055255 29.912749 lineto
258.554954 29.251899 lineto
270.242042 30.085145 lineto
276.616816 29.453027 lineto
285.116516 29.251899 lineto
296.803603 29.855284 lineto
306.365765 29.912749 lineto
316.990390 29.050771 lineto
326.552552 29.251899 lineto
337.177177 29.251899 lineto
347.801801 29.251899 lineto
359.488888 30.372471 lineto
370.113513 30.085145 lineto
378.613212 30.429936 lineto
388.175375 29.050771 lineto
399.862462 30.429936 lineto
409.424624 30.085145 lineto
420.049248 29.625423 lineto
431.736335 29.251899 lineto
441.298498 30.200075 lineto
452.985585 29.050771 lineto
462.547747 30.257540 lineto
473.172371 29.251899 lineto
479.547146 29.625423 lineto
489.109308 31.406845 lineto
499.733933 29.251899 lineto
507.171170 29.251899 lineto
517.795795 29.251899 lineto
518.858257 20.000000 lineto
518.858257 20.000000 lineto
518.858257 20.000000 lineto
517.795795 30.688530 lineto
507.171170 30.688530 lineto
499.733933 30.688530 lineto
489.109308 32.843475 lineto
479.547146 31.062053 lineto
473.172371 30.688530 lineto
462.547747 31.694171 lineto
452.985585 30.487401 lineto
441.298498 31.636706 lineto
431.736335 30.688530 lineto
420.049248 31.062053 lineto
409.424624 31.521775 lineto
399.862462 31.866566 lineto
388.175375 30.487401 lineto
378.613212 31.866566 lineto
370.113513 31.521775 lineto
359.488888 31.809101 lineto
347.801801 30.688530 lineto
337.177177 30.688530 lineto
326.552552 30.688530 lineto
316.990390 30.487401 lineto
306.365765 31.349379 lineto
296.803603 31.291914 lineto
285.116516 30.688530 lineto
276.616816 30.889658 lineto
270.242042 31.521775 lineto
258.554954 30.688530 lineto
250.055255 31.349379 lineto
241.555555 31.694171 lineto
230.930931 32.211358 lineto
220.306306 30.688530 lineto
208.619219 31.493042 lineto
199.057057 30.688530 lineto
188.432432 31.521775 lineto
182.057657 31.062053 lineto
175.682883 31.780369 lineto
166.120720 32.814742 lineto
157.621021 31.234449 lineto
145.933934 31.694171 lineto
135.309309 30.544866 lineto
124.684685 30.688530 lineto
114.060060 31.349379 lineto
102.372973 32.096427 lineto
92.810811 30.688530 lineto
82.186186 30.889658 lineto
78.998799 30.745995 lineto
69.436637 30.745995 lineto
60.936937 30.745995 lineto
51.374775 31.033321 lineto
45.000000 20.000000 lineto
closepath
gsave
0.000000 0.000000 0.500000 setrgbcolor
fill
grestore
stroke
45.000000 20.000000 moveto
45.000000 20.000000 lineto
51.374775 31.033321 lineto
60.936937 30.745995 lineto
69.436637 30.745995 lineto
78.998799 30.745995 lineto
82.186186 30.889658 lineto
92.810811 30.688530 lineto
102.372973 32.096427 lineto
114.060060 31.349379 lineto
124.684685 30.688530 lineto
135.309309 30.544866 lineto
145.933934 31.694171 lineto
157.621021 31.234449 lineto
166.120720 32.814742 lineto
175.682883 31.780369 lineto
182.057657 31.062053 lineto
188.432432 31.521775 lineto
199.057057 30.688530 lineto
208.619219 31.493042 lineto
220.306306 30.688530 lineto
230.930931 32.211358 lineto
241.555555 31.694171 lineto
250.055255 31.349379 lineto
258.554954 30.688530 lineto
270.242042 31.521775 lineto
276.616816 30.889658 lineto
285.116516 30.688530 lineto
296.803603 31.291914 lineto
306.365765 31.349379 lineto
316.990390 30.487401 lineto
326.552552 30.688530 lineto
337.177177 30.688530 lineto
347.801801 30.688530 lineto
359.488888 31.809101 lineto
370.113513 31.521775 lineto
378.613212 31.866566 lineto
388.175375 30.487401 lineto
399.862462 31.866566 lineto
409.424624 31.521775 lineto
420.049248 31.062053 lineto
431.736335 30.688530 lineto
441.298498 31.636706 lineto
452.985585 30.487401 lineto
462.547747 31.694171 lineto
473.172371 30.688530 lineto
479.547146 31.062053 lineto
489.109308 32.843475 lineto
499.733933 30.688530 lineto
507.171170 30.688530 lineto
517.795795 30.688530 lineto
518.858257 20.000000 lineto
518.858257 20.000000 lineto
518.858257 20.000000 lineto
517.795795 32.355021 lineto
507.171170 32.355021 lineto
499.733933 32.355021 lineto
489.109308 34.509966 lineto
479.547146 32.728545 lineto
473.172371 32.355021 lineto
462.547747 33.360662 lineto
452.985585 32.153892 lineto
441.298498 33.303197 lineto
431.736335 32.355021 lineto
420.049248 32.728545 lineto
409.424624 33.188266 lineto
399.862462 33.533058 lineto
388.175375 32.153892 lineto
378.613212 33.533058 lineto
370.113513 33.188266 lineto
359.488888 33.475592 lineto
347.801801 32.355021 lineto
337.177177 32.355021 lineto
326.552552 32.355021 lineto
316.990390 32.153892 lineto
306.365765 33.015871 lineto
296.803603 32.958405 lineto
285.116516 32.355021 lineto
276.616816 32.556149 lineto
270.242042 33.188266 lineto
258.554954 32.355021 lineto
250.055255 33.015871 lineto
241.555555 33.360662 lineto
230.930931 33.877849 lineto
220.306306 32.355021 lineto
208.619219 33.159534 lineto
199.057057 32.355021 lineto
188.432432 33.188266 lineto
182.057657 32.728545 lineto
175.682883 33.446860 lineto
166.120720 34.481234 lineto
157.621021 32.900940 lineto
145.933934 33.360662 lineto
135.309309 32.211358 lineto
124.684685 32.355021 lineto
114.060060 33.015871 lineto
102.372973 33.762918 lineto
92.810811 32.355021 lineto
82.186186 32.556149 lineto
78.998799 32.412486 lineto
69.436637 32.412486 lineto
60.936937 32.412486 lineto
51.374775 31.837834 lineto
45.000000 20.000000 lineto
closepath
gsave
0.000000 0.500000 0.000000 setrgbcolor
fill
grestore
stroke
45.000000 20.000000 moveto
45.000000 20.000000 lineto
51.374775 31.837834 lineto
60.936937 32.412486 lineto
69.436637 32.412486 lineto
78.998799 32.412486 lineto
82.186186 32.556149 lineto
92.810811 32.355021 lineto
102.372973 33.762918 lineto
114.060060 33.015871 lineto
124.684685 32.355021 lineto
135.309309 32.211358 lineto
145.933934 33.360662 lineto
157.621021 32.900940 lineto
166.120720 34.481234 lineto
175.682883 33.446860 lineto
182.057657 32.728545 lineto
188.432432 33.188266 lineto
199.057057 32.355021 lineto
208.619219 33.159534 lineto
220.306306 32.355021 lineto
230.930931 33.877849 lineto
241.555555 33.360662 lineto
250.055255 33.015871 lineto
258.554954 32.355021 lineto
270.242042 33.188266 lineto
276.616816 32.556149 lineto
285.116516 32.355021 lineto
296.803603 32.958405 lineto
306.365765 33.015871 lineto
316.990390 32.153892 lineto
326.552552 32.355021 lineto
337.177177 32.355021 lineto
347.801801 32.355021 lineto
359.488888 33.475592 lineto
370.113513 33.188266 lineto
378.613212 33.533058 lineto
388.175375 32.153892 lineto
399.862462 33.533058 lineto
409.424624 33.188266 lineto
420.049248 32.728545 lineto
431.736335 32.355021 lineto
441.298498 33.303197 lineto
452.985585 32.153892 lineto
462.547747 33.360662 lineto
473.172371 32.355021 lineto
479.547146 32.728545 lineto
489.109308 34.509966 lineto
499.733933 32.355021 lineto
507.171170 32.355021 lineto
517.795795 32.355021 lineto
518.858257 20.000000 lineto
518.858257 20.000000 lineto
518.858257 20.000000 lineto
517.795795 33.734186 lineto
507.171170 33.734186 lineto
499.733933 33.734186 lineto
489.109308 36.578714 lineto
479.547146 34.624897 lineto
473.172371 33.734186 lineto
462.547747 35.774201 lineto
452.985585 33.533058 lineto
441.298498 35.716736 lineto
431.736335 33.734186 lineto
420.049248 34.624897 lineto
409.424624 35.429410 lineto
399.862462 36.118992 lineto
388.175375 33.533058 lineto
378.613212 36.118992 lineto
370.113513 35.429410 lineto
359.488888 36.061527 lineto
347.801801 33.734186 lineto
337.177177 33.734186 lineto
326.552552 33.734186 lineto
316.990390 33.533058 lineto
306.365765 35.257014 lineto
296.803603 35.027153 lineto
285.116516 33.734186 lineto
276.616816 34.280105 lineto
270.242042 35.429410 lineto
258.554954 33.734186 lineto
250.055255 35.257014 lineto
241.555555 35.774201 lineto
230.930931 36.463783 lineto
220.306306 33.734186 lineto
208.619219 34.883490 lineto
199.057057 33.734186 lineto
188.432432 35.429410 lineto
182.057657 34.624897 lineto
175.682883 35.860399 lineto
166.120720 36.722377 lineto
157.621021 34.969688 lineto
145.933934 35.774201 lineto
135.309309 33.590523 lineto
124.684685 33.734186 lineto
114.060060 35.257014 lineto
102.372973 35.486875 lineto
92.810811 33.734186 lineto
82.186186 34.280105 lineto
78.998799 33.791651 lineto
69.436637 33.791651 lineto
60.936937 33.791651 lineto
51.374775 33.216999 lineto
45.000000 20.000000 lineto
closepath
gsave
0.000000 0.500000 1.000000 setrgbcolor
fill
grestore
stroke
45.000000 20.000000 moveto
45.000000 20.000000 lineto
51.374775 33.216999 lineto
60.936937 33.791651 lineto
69.436637 33.791651 lineto
78.998799 33.791651 lineto
82.186186 34.280105 lineto
92.810811 33.734186 lineto
102.372973 35.486875 lineto
114.060060 35.257014 lineto
124.684685 33.734186 lineto
135.309309 33.590523 lineto
145.933934 35.774201 lineto
157.621021 34.969688 lineto
166.120720 36.722377 lineto
175.682883 35.860399 lineto
182.057657 34.624897 lineto
188.432432 35.429410 lineto
199.057057 33.734186 lineto
208.619219 34.883490 lineto
220.306306 33.734186 lineto
230.930931 36.463783 lineto
241.555555 35.774201 lineto
250.055255 35.257014 lineto
258.554954 33.734186 lineto
270.242042 35.429410 lineto
276.616816 34.280105 lineto
285.116516 33.734186 lineto
296.803603 35.027153 lineto
306.365765 35.257014 lineto
316.990390 33.533058 lineto
326.552552 33.734186 lineto
337.177177 33.734186 lineto
347.801801 33.734186 lineto
359.488888 36.061527 lineto
370.113513 35.429410 lineto
378.613212 36.118992 lineto
388.175375 33.533058 lineto
399.862462 36.118992 lineto
409.424624 35.429410 lineto
420.049248 34.624897 lineto
431.736335 33.734186 lineto
441.298498 35.716736 lineto
452.985585 33.533058 lineto
462.547747 35.774201 lineto
473.172371 33.734186 lineto
479.547146 34.624897 lineto
489.109308 36.578714 lineto
499.733933 33.734186 lineto
507.171170 33.734186 lineto
517.795795 33.734186 lineto
518.858257 20.000000 lineto
518.858257 20.000000 lineto
518.858257 20.000000 lineto
517.795795 35.630538 lineto
507.171170 35.630538 lineto
499.733933 35.630538 lineto
489.109308 38.475066 lineto
479.547146 36.521249 lineto
473.172371 35.630538 lineto
462.547747 37.670553 lineto
452.985585 35.429410 lineto
441.298498 37.613088 lineto
431.736335 35.630538 lineto
420.049248 36.521249 lineto
409.424624 37.325762 lineto
399.862462 38.015344 lineto
388.175375 35.429410 lineto
378.613212 38.015344 lineto
370.113513 37.325762 lineto
359.488888 37.957879 lineto
347.801801 35.630538 lineto
337.177177 35.630538 lineto
326.552552 35.630538 lineto
316.990390 35.429410 lineto
306.365765 37.153366 lineto
296.803603 36.923505 lineto
285.116516 35.630538 lineto
276.616816 36.176457 lineto
270.242042 37.325762 lineto
258.554954 35.630538 lineto
250.055255 37.153366 lineto
241.555555 37.670553 lineto
230.930931 38.360135 lineto
220.306306 35.630538 lineto
208.619219 36.779842 lineto
199.057057 35.630538 lineto
188.432432 37.325762 lineto
182.057657 36.521249 lineto
175.682883 37.756751 lineto
166.120720 38.618729 lineto
157.621021 36.866040 lineto
145.933934 37.670553 lineto
135.309309 35.486875 lineto
124.684685 35.630538 lineto
114.060060 37.153366 lineto
102.372973 37.383227 lineto
92.810811 35.630538 lineto
82.186186 36.176457 lineto
78.998799 35.688003 lineto
69.436637 35.688003 lineto
60.936937 35.688003 lineto
51.374775 34.998420 lineto
45.000000 20.000000 lineto
closepath
gsave
0.000000 1.000000 0.500000 setrgbcolor
fill
grestore
stroke
45.000000 20.000000 moveto
45.000000 20.000000 lineto
51.374775 34.998420 lineto
60.936937 35.688003 lineto
69.436637 35.688003 lineto
78.998799 35.688003 lineto
82.186186 36.176457 lineto
92.810811 35.630538 lineto
102.372973 37.383227 lineto
114.060060 37.153366 lineto
124.684685 35.630538 lineto
135.309309 35.486875 lineto
145.933934 37.670553 lineto
157.621021 36.866040 lineto
166.120720 38.618729 lineto
175.682883 37.756751 lineto
182.057657 36.521249 lineto
188.432432 37.325762 lineto
199.057057 35.630538 lineto
208.619219 36.779842 lineto
220.306306 35.630538 lineto
230.930931 38.360135 lineto
241.555555 37.670553 lineto
250.055255 37.153366 lineto
258.554954 35.630538 lineto
270.242042 37.325762 lineto
276.616816 36.176457 lineto
285.116516 35.630538 lineto
296.803603 36.923505 lineto
306.365765 37.153366 lineto
316.990390 35.429410 lineto
326.552552 35.630538 lineto
337.177177 35.630538 lineto
347.801801 35.630538 lineto
359.488888 37.957879 lineto
370.113513 37.325762 lineto
378.613212 38.015344 lineto
388.175375 35.429410 lineto
399.862462 38.015344 lineto
409.424624 37.325762 lineto
420.049248 36.521249 lineto
431.736335 35.630538 lineto
441.298498 37.613088 lineto
452.985585 35.429410 lineto
462.547747 37.670553 lineto
473.172371 35.630538 lineto
479.547146 36.521249 lineto
489.109308 38.475066 lineto
499.733933 35.630538 lineto
507.171170 35.630538 lineto
517.795795 35.630538 lineto
518.858257 20.000000 lineto
518.858257 20.000000 lineto
518.858257 20.000000 lineto
517.795795 37.268296 lineto
507.171170 37.268296 lineto
499.733933 37.268296 lineto
489.109308 40.888605 lineto
479.547146 38.503798 lineto
473.172371 37.268296 lineto
462.547747 40.342685 lineto
452.985585 36.980970 lineto
441.298498 40.285220 lineto
431.736335 37.268296 lineto
420.049248 38.503798 lineto
409.424624 39.739300 lineto
399.862462 40.859872 lineto
388.175375 36.980970 lineto
378.613212 40.859872 lineto
370.113513 39.739300 lineto
359.488888 40.802407 lineto
347.801801 37.268296 lineto
337.177177 37.268296 lineto
326.552552 37.268296 lineto
316.990390 36.980970 lineto
306.365765 39.566905 lineto
296.803603 39.164648 lineto
285.116516 37.268296 lineto
276.616816 37.986612 lineto
270.242042 39.739300 lineto
258.554954 37.268296 lineto
250.055255 39.566905 lineto
241.555555 40.342685 lineto
230.930931 41.204663 lineto
220.306306 37.268296 lineto
208.619219 38.762392 lineto
199.057057 37.268296 lineto
188.432432 39.739300 lineto
182.057657 38.503798 lineto
175.682883 40.601279 lineto
166.120720 41.290861 lineto
157.621021 39.107183 lineto
145.933934 40.342685 lineto
135.309309 37.038436 lineto
124.684685 37.268296 lineto
114.060060 39.566905 lineto
102.372973 39.365777 lineto
92.810811 37.268296 lineto
82.186186 37.986612 lineto
78.998799 37.325762 lineto
69.436637 37.325762 lineto
60.936937 37.325762 lineto
51.374775 36.549981 lineto
45.000000 20.000000 lineto
closepath
gsave
0.500000 0.000000 0.000000 setrgbcolor
fill
grestore
stroke
45.000000 20.000000 moveto
45.000000 20.000000 lineto
51.374775 36.549981 lineto
60.936937 37.325762 lineto
69.436637 37.325762 lineto
78.998799 37.325762 lineto
82.186186 37.986612 lineto
92.810811 37.268296 lineto
102.372973 39.365777 lineto
114.060060 39.566905 lineto
124.684685 37.268296 lineto
135.309309 37.038436 lineto
145.933934 40.342685 lineto
157.621021 39.107183 lineto
166.120720 41.290861 lineto
175.682883 40.601279 lineto
182.057657 38.503798 lineto
188.432432 39.739300 lineto
199.057057 37.268296 lineto
208.619219 38.762392 lineto
220.306306 37.268296 lineto
230.930931 41.204663 lineto
241.555555 40.342685 lineto
250.055255 39.566905 lineto
258.554954 37.268296 lineto
270.242042 39.739300 lineto
276.616816 37.986612 lineto
285.116516 37.268296 lineto
296.803603 39.164648 lineto
306.365765 39.566905 lineto
316.990390 36.980970 lineto
326.552552 37.268296 lineto
337.177177 37.268296 lineto
347.801801 37.268296 lineto
359.488888 40.802407 lineto
370.113513 39.739300 lineto
378.613212 40.859872 lineto
388.175375 36.980970 lineto
399.862462 40.859872 lineto
409.424624 39.739300 lineto
420.049248 38.503798 lineto
431.736335 37.268296 lineto
441.298498 40.285220 lineto
452.985585 36.980970 lineto
462.547747 40.342685 lineto
473.172371 37.268296 lineto
479.547146 38.503798 lineto
489.109308 40.888605 lineto
499.733933 37.268296 lineto
507.171170 37.268296 lineto
517.795795 37.268296 lineto
518.858257 20.000000 lineto
518.858257 20.000000 lineto
518.858257 20.000000 lineto
517.795795 39.566905 lineto
507.171170 39.566905 lineto
499.733933 39.566905 lineto
489.109308 43.187213 lineto
479.547146 40.802407 lineto
473.172371 39.566905 lineto
462.547747 42.641294 lineto
452.985585 39.279579 lineto
441.298498 42.583829 lineto
431.736335 39.566905 lineto
420.049248 40.802407 lineto
409.424624 42.037909 lineto
399.862462 43.158481 lineto
388.175375 39.279579 lineto
378.613212 43.158481 lineto
370.113513 42.037909 lineto
359.488888 43.101015 lineto
347.801801 39.566905 lineto
337.177177 39.566905 lineto
326.552552 39.566905 lineto
316.990390 39.279579 lineto
306.365765 41.865513 lineto
296.803603 41.463257 lineto
285.116516 39.566905 lineto
276.616816 40.285220 lineto
270.242042 42.037909 lineto
258.554954 39.566905 lineto
250.055255 41.865513 lineto
241.555555 42.641294 lineto
230.930931 43.503272 lineto
220.306306 39.566905 lineto
208.619219 41.061000 lineto
199.057057 39.566905 lineto
188.432432 42.037909 lineto
182.057657 40.802407 lineto
175.682883 42.899887 lineto
166.120720 43.589470 lineto
157.621021 41.405792 lineto
145.933934 42.641294 lineto
135.309309 39.337044 lineto
124.684685 39.566905 lineto
114.060060 41.865513 lineto
102.372973 41.664385 lineto
92.810811 39.566905 lineto
82.186186 40.285220 lineto
78.998799 39.624370 lineto
69.436637 39.624370 lineto
60.936937 39.624370 lineto
51.374775 38.848590 lineto
45.000000 20.000000 lineto
closepath
gsave
0.500000 0.000000 1.000000 setrgbcolor
fill
grestore
stroke
45.000000 20.000000 moveto
45.000000 20.000000 lineto
51.374775 38.848590 lineto
60.936937 39.624370 lineto
69.436637 39.624370 lineto
78.998799 39.624370 lineto
82.186186 40.285220 lineto
92.810811 39.566905 lineto
102.372973 41.664385 lineto
114.060060 41.865513 lineto
124.684685 39.566905 lineto
135.309309 39.337044 lineto
145.933934 42.641294 lineto
157.621021 41.405792 lineto
166.120720 43.589470 lineto
175.682883 42.899887 lineto
182.057657 40.802407 lineto
188.432432 42.037909 lineto
199.057057 39.566905 lineto
208.619219 41.061000 lineto
220.306306 39.566905 lineto
230.930931 43.503272 lineto
241.555555 42.641294 lineto
250.055255 41.865513 lineto
258.554954 39.566905 lineto
270.242042 42.037909 lineto
276.616816 40.285220 lineto
285.116516 39.566905 lineto
296.803603 41.463257 lineto
306.365765 41.865513 lineto
316.990390 39.279579 lineto
326.552552 39.566905 lineto
337.177177 39.566905 lineto
347.801801 39.566905 lineto
359.488888 43.101015 lineto
370.113513 42.037909 lineto
378.613212 43.158481 lineto
388.175375 39.279579 lineto
399.862462 43.158481 lineto
409.424624 42.037909 lineto
420.049248 40.802407 lineto
431.736335 39.566905 lineto
441.298498 42.583829 lineto
452.985585 39.279579 lineto
462.547747 42.641294 lineto
473.172371 39.566905 lineto
479.547146 40.802407 lineto
489.109308 43.187213 lineto
499.733933 39.566905 lineto
507.171170 39.566905 lineto
517.795795 39.566905 lineto
518.858257 20.000000 lineto
518.858257 20.000000 lineto
518.858257 20.000000 lineto
517.795795 44.738774 lineto
507.171170 44.738774 lineto
499.733933 44.738774 lineto
489.109308 48.359082 lineto
479.547146 45.974276 lineto
473.172371 44.738774 lineto
462.547747 47.813163 lineto
452.985585 44.451448 lineto
441.298498 47.755698 lineto
431.736335 44.738774 lineto
420.049248 45.974276 lineto
409.424624 47.209778 lineto
399.862462 48.330350 lineto
388.175375 44.451448 lineto
378.613212 48.330350 lineto
370.113513 47.209778 lineto
359.488888 48.272885 lineto
347.801801 44.738774 lineto
337.177177 44.738774 lineto
326.552552 44.738774 lineto
316.990390 44.451448 lineto
306.365765 47.037382 lineto
296.803603 46.635126 lineto
285.116516 44.738774 lineto
276.616816 45.457089 lineto
270.242042 47.209778 lineto
258.554954 44.738774 lineto
250.055255 47.037382 lineto
241.555555 47.813163 lineto
230.930931 48.675141 lineto
220.306306 44.738774 lineto
208.619219 46.232869 lineto
199.057057 44.738774 lineto
188.432432 47.209778 lineto
182.057657 45.974276 lineto
175.682883 48.071756 lineto
166.120720 48.761339 lineto
157.621021 46.577661 lineto
145.933934 47.813163 lineto
135.309309 44.508913 lineto
124.684685 44.738774 lineto
114.060060 47.037382 lineto
102.372973 46.836254 lineto
92.810811 44.738774 lineto
82.186186 45.457089 lineto
78.998799 44.796239 lineto
69.436637 44.796239 lineto
60.936937 44.796239 lineto
51.374775 42.066642 lineto
45.000000 20.000000 lineto
closepath
gsave
0.500000 0.900000 0.000000 setrgbcolor
fill
grestore
stroke
45.000000 20.000000 moveto
45.000000 20.000000 lineto
51.374775 42.066642 lineto
60.936937 44.796239 lineto
69.436637 44.796239 lineto
78.998799 44.796239 lineto
82.186186 45.457089 lineto
92.810811 44.738774 lineto
102.372973 46.836254 lineto
114.060060 47.037382 lineto
124.684685 44.738774 lineto
135.309309 44.508913 lineto
145.933934 47.813163 lineto
157.621021 46.577661 lineto
166.120720 48.761339 lineto
175.682883 48.071756 lineto
182.057657 45.974276 lineto
188.432432 47.209778 lineto
199.057057 44.738774 lineto
208.619219 46.232869 lineto
220.306306 44.738774 lineto
230.930931 48.675141 lineto
241.555555 47.813163 lineto
250.055255 47.037382 lineto
258.554954 44.738774 lineto
270.242042 47.209778 lineto
276.616816 45.457089 lineto
285.116516 44.738774 lineto
296.803603 46.635126 lineto
306.365765 47.037382 lineto
316.990390 44.451448 lineto
326.552552 44.738774 lineto
337.177177 44.738774 lineto
347.801801 44.738774 lineto
359.488888 48.272885 lineto
370.113513 47.209778 lineto
378.613212 48.330350 lineto
388.175375 44.451448 lineto
399.862462 48.330350 lineto
409.424624 47.209778 lineto
420.049248 45.974276 lineto
431.736335 44.738774 lineto
441.298498 47.755698 lineto
452.985585 44.451448 lineto
462.547747 47.813163 lineto
473.172371 44.738774 lineto
479.547146 45.974276 lineto
489.109308 48.359082 lineto
499.733933 44.738774 lineto
507.171170 44.738774 lineto
517.795795 44.738774 lineto
518.858257 20.000000 lineto
518.858257 20.000000 lineto
518.858257 20.000000 lineto
517.795795 49.393456 lineto
507.171170 49.393456 lineto
499.733933 49.393456 lineto
489.109308 55.369838 lineto
479.547146 51.720797 lineto
473.172371 49.393456 lineto
462.547747 55.513501 lineto
452.985585 48.991200 lineto
441.298498 55.456036 lineto
431.736335 49.393456 lineto
420.049248 51.720797 lineto
409.424624 54.277999 lineto
399.862462 56.720271 lineto
388.175375 48.991200 lineto
378.613212 56.720271 lineto
370.113513 54.277999 lineto
359.488888 56.662806 lineto
347.801801 49.393456 lineto
337.177177 49.393456 lineto
326.552552 49.393456 lineto
316.990390 48.991200 lineto
306.365765 54.105604 lineto
296.803603 53.013765 lineto
285.116516 49.393456 lineto
276.616816 50.514028 lineto
270.242042 54.277999 lineto
258.554954 49.393456 lineto
250.055255 54.105604 lineto
241.555555 55.513501 lineto
230.930931 57.179992 lineto
220.306306 49.393456 lineto
208.619219 51.921926 lineto
199.057057 49.393456 lineto
188.432432 54.277999 lineto
182.057657 51.720797 lineto
175.682883 56.404212 lineto
166.120720 56.404212 lineto
157.621021 52.956299 lineto
145.933934 55.513501 lineto
135.309309 49.048665 lineto
124.684685 49.393456 lineto
114.060060 54.105604 lineto
102.372973 52.525310 lineto
92.810811 49.393456 lineto
82.186186 50.514028 lineto
78.998799 49.450921 lineto
69.436637 49.450921 lineto
60.936937 49.450921 lineto
51.374775 46.606393 lineto
45.000000 20.000000 lineto
closepath
gsave
0.500000 1.000000 1.000000 setrgbcolor
fill
grestore
stroke
45.000000 20.000000 moveto
45.000000 20.000000 lineto
51.374775 46.606393 lineto
60.936937 49.450921 lineto
69.436637 49.450921 lineto
78.998799 49.450921 lineto
82.186186 50.514028 lineto
92.810811 49.393456 lineto
102.372973 52.525310 lineto
114.060060 54.105604 lineto
124.684685 49.393456 lineto
135.309309 49.048665 lineto
145.933934 55.513501 lineto
157.621021 52.956299 lineto
166.120720 56.404212 lineto
175.682883 56.404212 lineto
182.057657 51.720797 lineto
188.432432 54.277999 lineto
199.057057 49.393456 lineto
208.619219 51.921926 lineto
220.306306 49.393456 lineto
230.930931 57.179992 lineto
241.555555 55.513501 lineto
250.055255 54.105604 lineto
258.554954 49.393456 lineto
270.242042 54.277999 lineto
276.616816 50.514028 lineto
285.116516 49.393456 lineto
296.803603 53.013765 lineto
306.365765 54.105604 lineto
316.990390 48.991200 lineto
326.552552 49.393456 lineto
337.177177 49.393456 lineto
347.801801 49.393456 lineto
359.488888 56.662806 lineto
370.113513 54.277999 lineto
378.613212 56.720271 lineto
388.175375 48.991200 lineto
399.862462 56.720271 lineto
409.424624 54.277999 lineto
420.049248 51.720797 lineto
431.736335 49.393456 lineto
441.298498 55.456036 lineto
452.985585 48.991200 lineto
462.547747 55.513501 lineto
473.172371 49.393456 lineto
479.547146 51.720797 lineto
489.109308 55.369838 lineto
499.733933 49.393456 lineto
507.171170 49.393456 lineto
517.795795 49.393456 lineto
518.858257 20.000000 lineto
518.858257 20.000000 lineto
518.858257 20.000000 lineto
517.795795 58.472960 lineto
507.171170 58.472960 lineto
499.733933 58.472960 lineto
489.109308 69.391350 lineto
479.547146 63.098909 lineto
473.172371 58.472960 lineto
462.547747 70.799248 lineto
452.985585 57.955773 lineto
441.298498 70.741783 lineto
431.736335 58.472960 lineto
420.049248 63.098909 lineto
409.424624 68.299511 lineto
399.862462 73.385182 lineto
388.175375 57.955773 lineto
378.613212 73.385182 lineto
370.113513 68.299511 lineto
359.488888 73.327717 lineto
347.801801 58.472960 lineto
337.177177 58.472960 lineto
326.552552 58.472960 lineto
316.990390 57.955773 lineto
306.365765 68.127115 lineto
296.803603 65.656111 lineto
285.116516 58.472960 lineto
276.616816 60.512975 lineto
270.242042 68.299511 lineto
258.554954 58.472960 lineto
250.055255 68.127115 lineto
241.555555 70.799248 lineto
230.930931 74.189695 lineto
220.306306 58.472960 lineto
208.619219 63.300038 lineto
199.057057 58.472960 lineto
188.432432 68.299511 lineto
182.057657 63.098909 lineto
175.682883 73.069124 lineto
166.120720 71.689959 lineto
157.621021 65.598646 lineto
145.933934 70.799248 lineto
135.309309 58.013238 lineto
124.684685 58.472960 lineto
114.060060 68.127115 lineto
102.372973 63.903422 lineto
92.810811 58.472960 lineto
82.186186 60.512975 lineto
78.998799 58.530425 lineto
69.436637 58.530425 lineto
60.936937 58.530425 lineto
51.374775 55.570967 lineto
45.000000 20.000000 lineto
closepath
gsave
1.000000 0.000000 0.500000 setrgbcolor
fill
grestore
stroke
45.000000 20.000000 moveto
45.000000 20.000000 lineto
51.374775 55.570967 lineto
60.936937 58.530425 lineto
69.436637 58.530425 lineto
78.998799 58.530425 lineto
82.186186 60.512975 lineto
92.810811 58.472960 lineto
102.372973 63.903422 lineto
114.060060 68.127115 lineto
124.684685 58.472960 lineto
135.309309 58.013238 lineto
145.933934 70.799248 lineto
157.621021 65.598646 lineto
166.120720 71.689959 lineto
175.682883 73.069124 lineto
182.057657 63.098909 lineto
188.432432 68.299511 lineto
199.057057 58.472960 lineto
208.619219 63.300038 lineto
220.306306 58.472960 lineto
230.930931 74.189695 lineto
241.555555 70.799248 lineto
250.055255 68.127115 lineto
258.554954 58.472960 lineto
270.242042 68.299511 lineto
276.616816 60.512975 lineto
285.116516 58.472960 lineto
296.803603 65.656111 lineto
306.365765 68.127115 lineto
316.990390 57.955773 lineto
326.552552 58.472960 lineto
337.177177 58.472960 lineto
347.801801 58.472960 lineto
359.488888 73.327717 lineto
370.113513 68.299511 lineto
378.613212 73.385182 lineto
388.175375 57.955773 lineto
399.862462 73.385182 lineto
409.424624 68.299511 lineto
420.049248 63.098909 lineto
431.736335 58.472960 lineto
441.298498 70.741783 lineto
452.985585 57.955773 lineto
462.547747 70.799248 lineto
473.172371 58.472960 lineto
479.547146 63.098909 lineto
489.109308 69.391350 lineto
499.733933 58.472960 lineto
507.171170 58.472960 lineto
517.795795 58.472960 lineto
518.858257 20.000000 lineto
518.858257 20.000000 lineto
518.858257 20.000000 lineto
517.795795 72.350809 lineto
507.171170 72.350809 lineto
499.733933 72.350809 lineto
489.109308 88.958255 lineto
479.547146 80.424671 lineto
473.172371 72.350809 lineto
462.547747 93.986461 lineto
452.985585 71.661226 lineto
441.298498 93.928996 lineto
431.736335 72.350809 lineto
420.049248 80.424671 lineto
409.424624 89.590372 lineto
399.862462 98.641143 lineto
388.175375 71.661226 lineto
378.613212 98.641143 lineto
370.113513 89.590372 lineto
359.488888 98.583678 lineto
347.801801 72.350809 lineto
337.177177 72.350809 lineto
326.552552 72.350809 lineto
316.990390 71.661226 lineto
306.365765 89.417977 lineto
296.803603 84.878225 lineto
285.116516 72.350809 lineto
276.616816 75.769989 lineto
270.242042 89.590372 lineto
258.554954 72.350809 lineto
250.055255 89.417977 lineto
241.555555 93.986461 lineto
230.930931 99.445656 lineto
220.306306 72.350809 lineto
208.619219 78.901843 lineto
199.057057 72.350809 lineto
188.432432 89.590372 lineto
182.057657 80.424671 lineto
175.682883 96.601128 lineto
166.120720 93.498007 lineto
157.621021 84.820760 lineto
145.933934 93.986461 lineto
135.309309 71.718691 lineto
124.684685 72.350809 lineto
114.060060 89.417977 lineto
102.372973 79.505228 lineto
92.810811 72.350809 lineto
82.186186 75.769989 lineto
78.998799 72.408274 lineto
69.436637 72.408274 lineto
60.936937 72.408274 lineto
51.374775 69.362618 lineto
45.000000 20.000000 lineto
closepath
gsave
1.000000 0.500000 0.000000 setrgbcolor
fill
grestore
stroke
45.000000 20.000000 moveto
45.000000 20.000000 lineto
51.374775 69.362618 lineto
60.936937 72.408274 lineto
69.436637 72.408274 lineto
78.998799 72.408274 lineto
82.186186 75.769989 lineto
92.810811 72.350809 lineto
102.372973 79.505228 lineto
114.060060 89.417977 lineto
124.684685 72.350809 lineto
135.309309 71.718691 lineto
145.933934 93.986461 lineto
157.621021 84.820760 lineto
166.120720 93.498007 lineto
175.682883 96.601128 lineto
182.057657 80.424671 lineto
188.432432 89.590372 lineto
199.057057 72.350809 lineto
208.619219 78.901843 lineto
220.306306 72.350809 lineto
230.930931 99.445656 lineto
241.555555 93.986461 lineto
250.055255 89.417977 lineto
258.554954 72.350809 lineto
270.242042 89.590372 lineto
276.616816 75.769989 lineto
285.116516 72.350809 lineto
296.803603 84.878225 lineto
306.365765 89.417977 lineto
316.990390 71.661226 lineto
326.552552 72.350809 lineto
337.177177 72.350809 lineto
347.801801 72.350809 lineto
359.488888 98.583678 lineto
370.113513 89.590372 lineto
378.613212 98.641143 lineto
388.175375 71.661226 lineto
399.862462 98.641143 lineto
409.424624 89.590372 lineto
420.049248 80.424671 lineto
431.736335 72.350809 lineto
441.298498 93.928996 lineto
452.985585 71.661226 lineto
462.547747 93.986461 lineto
473.172371 72.350809 lineto
479.547146 80.424671 lineto
489.109308 88.958255 lineto
499.733933 72.350809 lineto
507.171170 72.350809 lineto
517.795795 72.350809 lineto
518.858257 20.000000 lineto
518.858257 20.000000 lineto
518.858257 20.000000 lineto
517.795795 166.191501 lineto
507.171170 166.191501 lineto
499.733933 166.191501 lineto
489.109308 219.145694 lineto
479.547146 194.722979 lineto
473.172371 166.191501 lineto
462.547747 241.643325 lineto
452.985585 164.496277 lineto
441.298498 241.585859 lineto
431.736335 166.191501 lineto
420.049248 194.722979 lineto
409.424624 226.300113 lineto
399.862462 257.762317 lineto
388.175375 164.496277 lineto
378.613212 257.762317 lineto
370.113513 226.300113 lineto
359.488888 257.704851 lineto
347.801801 166.191501 lineto
337.177177 166.191501 lineto
326.552552 166.191501 lineto
316.990390 164.496277 lineto
306.365765 226.127717 lineto
296.803603 210.123656 lineto
285.116516 166.191501 lineto
276.616816 178.603986 lineto
270.242042 226.300113 lineto
258.554954 166.191501 lineto
250.055255 226.127717 lineto
241.555555 241.643325 lineto
230.930931 259.658669 lineto
220.306306 166.191501 lineto
208.619219 190.642948 lineto
199.057057 166.191501 lineto
188.432432 226.300113 lineto
182.057657 194.722979 lineto
175.682883 253.682287 lineto
166.120720 234.632569 lineto
157.621021 210.066190 lineto
145.933934 241.643325 lineto
135.309309 164.553742 lineto
124.684685 166.191501 lineto
114.060060 226.127717 lineto
102.372973 189.349981 lineto
92.810811 166.191501 lineto
82.186186 178.603986 lineto
78.998799 166.248966 lineto
69.436637 166.248966 lineto
60.936937 166.248966 lineto
51.374775 160.128921 lineto
45.000000 20.000000 lineto
closepath
gsave
1.000000 0.500000 1.000000 setrgbcolor
fill
grestore
stroke
45.000000 20.000000 moveto
45.000000 20.000000 lineto
51.374775 160.128921 lineto
60.936937 166.248966 lineto
69.436637 166.248966 lineto
78.998799 166.248966 lineto
82.186186 178.603986 lineto
92.810811 166.191501 lineto
102.372973 189.349981 lineto
114.060060 226.127717 lineto
124.684685 166.191501 lineto
135.309309 164.553742 lineto
145.933934 241.643325 lineto
157.621021 210.066190 lineto
166.120720 234.632569 lineto
175.682883 253.682287 lineto
182.057657 194.722979 lineto
188.432432 226.300113 lineto
199.057057 166.191501 lineto
208.619219 190.642948 lineto
220.306306 166.191501 lineto
230.930931 259.658669 lineto
241.555555 241.643325 lineto
250.055255 226.127717 lineto
258.554954 166.191501 lineto
270.242042 226.300113 lineto
276.616816 178.603986 lineto
285.116516 166.191501 lineto
296.803603 210.123656 lineto
306.365765 226.127717 lineto
316.990390 164.496277 lineto
326.552552 166.191501 lineto
337.177177 166.191501 lineto
347.801801 166.191501 lineto
359.488888 257.704851 lineto
370.113513 226.300113 lineto
378.613212 257.762317 lineto
388.175375 164.496277 lineto
399.862462 257.762317 lineto
409.424624 226.300113 lineto
420.049248 194.722979 lineto
431.736335 166.191501 lineto
441.298498 241.585859 lineto
452.985585 164.496277 lineto
462.547747 241.643325 lineto
473.172371 166.191501 lineto
479.547146 194.722979 lineto
489.109308 219.145694 lineto
499.733933 166.191501 lineto
507.171170 166.191501 lineto
517.795795 166.191501 lineto
518.858257 20.000000 lineto
518.858257 20.000000 lineto
518.858257 20.000000 lineto
517.795795 299.855585 lineto
507.171170 299.855585 lineto
499.733933 299.855585 lineto
489.109308 352.809778 lineto
479.547146 328.387063 lineto
473.172371 299.855585 lineto
462.547747 375.307409 lineto
452.985585 298.160361 lineto
441.298498 375.249944 lineto
431.736335 299.855585 lineto
420.049248 328.387063 lineto
409.424624 359.964197 lineto
399.862462 391.426401 lineto
388.175375 298.160361 lineto
378.613212 391.426401 lineto
370.113513 359.964197 lineto
359.488888 391.368936 lineto
347.801801 314.509214 lineto
337.177177 299.855585 lineto
326.552552 299.855585 lineto
316.990390 298.160361 lineto
306.365765 359.791801 lineto
296.803603 343.787740 lineto
285.116516 299.855585 lineto
276.616816 312.268071 lineto
270.242042 359.964197 lineto
258.554954 299.855585 lineto
250.055255 359.791801 lineto
241.555555 375.307409 lineto
230.930931 393.408951 lineto
220.306306 299.855585 lineto
208.619219 324.307033 lineto
199.057057 299.855585 lineto
188.432432 359.964197 lineto
182.057657 328.387063 lineto
175.682883 402.000000 lineto
166.120720 368.382851 lineto
157.621021 343.730275 lineto
145.933934 375.307409 lineto
135.309309 298.217826 lineto
124.684685 299.855585 lineto
114.060060 359.791801 lineto
102.372973 337.667695 lineto
92.810811 299.855585 lineto
82.186186 312.268071 lineto
78.998799 299.913050 lineto
69.436637 299.913050 lineto
60.936937 299.913050 lineto
51.374775 323.157728 lineto
45.000000 20.000000 lineto
closepath
gsave
1.000000 1.000000 0.500000 setrgbcolor
fill
grestore
stroke
showpage
