X_RANGE 0.78
Y_RANGE 201831792.00
ORDER (477)makeNormal/evalPictur... 1
ORDER (392)evalPicture.geometry/... 2
ORDER (470)surfGeom/surfCell/iso... 3
ORDER (333)readAstroData/evalPic... 4
ORDER (445)cubicPoints/evalPictu... 5
ORDER (419)zipWith8/cubicGrid.zi... 6
ORDER (444)zipWith8/cubicGrid.zi... 7
ORDER (437)isosurface/evalPictur... 8
SHADE (477)makeNormal/evalPictur... 0.00
SHADE (392)evalPicture.geometry/... 0.00
SHADE (470)surfGeom/surfCell/iso... 0.00
SHADE (333)readAstroData/evalPic... 0.00
SHADE (445)cubicPoints/evalPictu... 0.10
SHADE (419)zipWith8/cubicGrid.zi... 0.10
SHADE (444)zipWith8/cubicGrid.zi... 0.10
SHADE (437)isosurface/evalPictur... 0.10
