%!PS-Adobe-2.0
%%Title: Viewer.exe +RTS -prof -hc
%%Creator: hp2ps (version 0.25)
%%CreationDate: Tue May 05 15:52 2015
%%EndComments
-90 rotate
-756.000000 72.000000 translate
/HE10 /Helvetica findfont 10 scalefont def
/HE12 /Helvetica findfont 12 scalefont def
newpath
0 0 moveto
0 432.000000 rlineto
648.000000 0 rlineto
0 -432.000000 rlineto
closepath
0.500000 setlinewidth
stroke
newpath
5.000000 407.000000 moveto
0 20.000000 rlineto
638.000000 0 rlineto
0 -20.000000 rlineto
closepath
0.500000 setlinewidth
stroke
HE12 setfont
11.000000 413.000000 moveto
(Viewer.exe +RTS -prof -hc) show
HE12 setfont
(80,429,727 bytes x seconds)
dup stringwidth pop
2 div
319.000000
exch sub
413.000000 moveto
show
HE12 setfont
(Tue May 05 15:52 2015)
dup stringwidth pop
637.000000
exch sub
413.000000 moveto
show
45.000000 20.000000 moveto
422.834629 0 rlineto
0.500000 setlinewidth
stroke
HE10 setfont
(seconds)
dup stringwidth pop
467.834629
exch sub
5.000000 moveto
show
45.000000 20.000000 moveto
0 -4 rlineto
stroke
HE10 setfont
(0.0)
dup stringwidth pop
2 div
45.000000 exch sub
5.000000 moveto
show
153.419136 20.000000 moveto
0 -4 rlineto
stroke
HE10 setfont
(0.2)
dup stringwidth pop
2 div
153.419136 exch sub
5.000000 moveto
show
261.838271 20.000000 moveto
0 -4 rlineto
stroke
HE10 setfont
(0.4)
dup stringwidth pop
2 div
261.838271 exch sub
5.000000 moveto
show
370.257407 20.000000 moveto
0 -4 rlineto
stroke
HE10 setfont
(0.6)
dup stringwidth pop
2 div
370.257407 exch sub
5.000000 moveto
show
45.000000 20.000000 moveto
0 382.000000 rlineto
0.500000 setlinewidth
stroke
gsave
HE10 setfont
(bytes)
dup stringwidth pop
402.000000
exch sub
40.000000 exch
translate
90 rotate
0 0 moveto
show
grestore
45.000000 20.000000 moveto
-4 0 rlineto
stroke
HE10 setfont
(0M)
dup stringwidth
2 div
20.000000 exch sub
exch
40.000000 exch sub
exch
moveto
show
45.000000 57.853303 moveto
-4 0 rlineto
stroke
HE10 setfont
(20M)
dup stringwidth
2 div
57.853303 exch sub
exch
40.000000 exch sub
exch
moveto
show
45.000000 95.706606 moveto
-4 0 rlineto
stroke
HE10 setfont
(40M)
dup stringwidth
2 div
95.706606 exch sub
exch
40.000000 exch sub
exch
moveto
show
45.000000 133.559909 moveto
-4 0 rlineto
stroke
HE10 setfont
(60M)
dup stringwidth
2 div
133.559909 exch sub
exch
40.000000 exch sub
exch
moveto
show
45.000000 171.413212 moveto
-4 0 rlineto
stroke
HE10 setfont
(80M)
dup stringwidth
2 div
171.413212 exch sub
exch
40.000000 exch sub
exch
moveto
show
45.000000 209.266516 moveto
-4 0 rlineto
stroke
HE10 setfont
(100M)
dup stringwidth
2 div
209.266516 exch sub
exch
40.000000 exch sub
exch
moveto
show
45.000000 247.119819 moveto
-4 0 rlineto
stroke
HE10 setfont
(120M)
dup stringwidth
2 div
247.119819 exch sub
exch
40.000000 exch sub
exch
moveto
show
45.000000 284.973122 moveto
-4 0 rlineto
stroke
HE10 setfont
(140M)
dup stringwidth
2 div
284.973122 exch sub
exch
40.000000 exch sub
exch
moveto
show
45.000000 322.826425 moveto
-4 0 rlineto
stroke
HE10 setfont
(160M)
dup stringwidth
2 div
322.826425 exch sub
exch
40.000000 exch sub
exch
moveto
show
45.000000 360.679728 moveto
-4 0 rlineto
stroke
HE10 setfont
(180M)
dup stringwidth
2 div
360.679728 exch sub
exch
40.000000 exch sub
exch
moveto
show
472.834629 55.444444 moveto
0 14 rlineto
14 0 rlineto
0 -14 rlineto
closepath
gsave
0.000000 0.000000 0.000000 setrgbcolor
fill
grestore
stroke
HE10 setfont
491.834629 57.444444 moveto
((477)makeNormal/evalPictur...) show
472.834629 97.888889 moveto
0 14 rlineto
14 0 rlineto
0 -14 rlineto
closepath
gsave
0.000000 0.000000 1.000000 setrgbcolor
fill
grestore
stroke
HE10 setfont
491.834629 99.888889 moveto
((392)evalPicture.geometry/...) show
472.834629 140.333333 moveto
0 14 rlineto
14 0 rlineto
0 -14 rlineto
closepath
gsave
0.000000 1.000000 0.000000 setrgbcolor
fill
grestore
stroke
HE10 setfont
491.834629 142.333333 moveto
((470)surfGeom/surfCell/iso...) show
472.834629 182.777778 moveto
0 14 rlineto
14 0 rlineto
0 -14 rlineto
closepath
gsave
0.000000 1.000000 1.000000 setrgbcolor
fill
grestore
stroke
HE10 setfont
491.834629 184.777778 moveto
((333)readAstroData/evalPic...) show
472.834629 225.222222 moveto
0 14 rlineto
14 0 rlineto
0 -14 rlineto
closepath
gsave
1.000000 0.000000 0.000000 setrgbcolor
fill
grestore
stroke
HE10 setfont
491.834629 227.222222 moveto
((445)cubicPoints/evalPictu...) show
472.834629 267.666667 moveto
0 14 rlineto
14 0 rlineto
0 -14 rlineto
closepath
gsave
1.000000 0.000000 1.000000 setrgbcolor
fill
grestore
stroke
HE10 setfont
491.834629 269.666667 moveto
((419)zipWith8/cubicGrid.zi...) show
472.834629 310.111111 moveto
0 14 rlineto
14 0 rlineto
0 -14 rlineto
closepath
gsave
1.000000 1.000000 0.000000 setrgbcolor
fill
grestore
stroke
HE10 setfont
491.834629 312.111111 moveto
((444)zipWith8/cubicGrid.zi...) show
472.834629 352.555556 moveto
0 14 rlineto
14 0 rlineto
0 -14 rlineto
closepath
gsave
1.000000 1.000000 1.000000 setrgbcolor
fill
grestore
stroke
HE10 setfont
491.834629 354.555556 moveto
((437)isosurface/evalPictur...) show
45.000000 20.000000 moveto
45.000000 20.000000 lineto
93.788611 20.000000 lineto
169.682006 20.000000 lineto
229.312531 20.000000 lineto
278.101142 20.000000 lineto
348.573580 20.000000 lineto
381.099321 20.000000 lineto
424.466975 20.000000 lineto
467.834629 20.000000 lineto
467.834629 20.000000 lineto
467.834629 20.000000 lineto
424.466975 32.590917 lineto
381.099321 29.767666 lineto
348.573580 27.203484 lineto
278.101142 23.786844 lineto
229.312531 20.786894 lineto
169.682006 20.000000 lineto
93.788611 20.000000 lineto
45.000000 20.000000 lineto
closepath
gsave
0.000000 0.000000 0.000000 setrgbcolor
fill
grestore
stroke
45.000000 20.000000 moveto
45.000000 20.000000 lineto
93.788611 20.000000 lineto
169.682006 20.000000 lineto
229.312531 20.786894 lineto
278.101142 23.786844 lineto
348.573580 27.203484 lineto
381.099321 29.767666 lineto
424.466975 32.590917 lineto
467.834629 20.000000 lineto
467.834629 20.000000 lineto
467.834629 20.000000 lineto
424.466975 45.182364 lineto
381.099321 39.535863 lineto
348.573580 34.407497 lineto
278.101142 27.574219 lineto
229.312531 21.574319 lineto
169.682006 20.000500 lineto
93.788611 20.000500 lineto
45.000000 20.000000 lineto
closepath
gsave
0.000000 0.000000 1.000000 setrgbcolor
fill
grestore
stroke
45.000000 20.000000 moveto
45.000000 20.000000 lineto
93.788611 20.000500 lineto
169.682006 20.000500 lineto
229.312531 21.574319 lineto
278.101142 27.574219 lineto
348.573580 34.407497 lineto
381.099321 39.535863 lineto
424.466975 45.182364 lineto
467.834629 20.000000 lineto
467.834629 20.000000 lineto
467.834629 20.000000 lineto
424.466975 82.955115 lineto
381.099321 68.838862 lineto
348.573580 56.017948 lineto
278.101142 38.934752 lineto
229.312531 23.935002 lineto
169.682006 20.000500 lineto
93.788611 20.000500 lineto
45.000000 20.000000 lineto
closepath
gsave
0.000000 1.000000 0.000000 setrgbcolor
fill
grestore
stroke
45.000000 20.000000 moveto
45.000000 20.000000 lineto
93.788611 20.000500 lineto
169.682006 20.000500 lineto
229.312531 23.935002 lineto
278.101142 38.934752 lineto
348.573580 56.017948 lineto
381.099321 68.838862 lineto
424.466975 82.955115 lineto
467.834629 20.000000 lineto
467.834629 20.000000 lineto
467.834629 20.000000 lineto
424.466975 83.132814 lineto
381.099321 80.261308 lineto
348.573580 75.454620 lineto
278.101142 67.635672 lineto
229.312531 64.148020 lineto
169.682006 50.961685 lineto
93.788611 30.194758 lineto
45.000000 20.000000 lineto
closepath
gsave
0.000000 1.000000 1.000000 setrgbcolor
fill
grestore
stroke
45.000000 20.000000 moveto
45.000000 20.000000 lineto
93.788611 30.194758 lineto
169.682006 50.961685 lineto
229.312531 64.148020 lineto
278.101142 67.635672 lineto
348.573580 75.454620 lineto
381.099321 80.261308 lineto
424.466975 83.132814 lineto
467.834629 20.000000 lineto
467.834629 20.000000 lineto
467.834629 20.000000 lineto
424.466975 83.465772 lineto
381.099321 94.551838 lineto
348.573580 99.401346 lineto
278.101142 102.757541 lineto
229.312531 113.138128 lineto
169.682006 88.194694 lineto
93.788611 42.394862 lineto
45.000000 20.000000 lineto
closepath
gsave
1.000000 0.000000 0.000000 setrgbcolor
fill
grestore
stroke
45.000000 20.000000 moveto
45.000000 20.000000 lineto
93.788611 42.394862 lineto
169.682006 88.194694 lineto
229.312531 113.138128 lineto
278.101142 102.757541 lineto
348.573580 99.401346 lineto
381.099321 94.551838 lineto
424.466975 83.465772 lineto
467.834629 20.000000 lineto
467.834629 20.000000 lineto
467.834629 20.000000 lineto
424.466975 83.726793 lineto
381.099321 118.517582 lineto
348.573580 140.581455 lineto
278.101142 163.864355 lineto
229.312531 199.001729 lineto
169.682006 152.310528 lineto
93.788611 61.872582 lineto
45.000000 20.000000 lineto
closepath
gsave
1.000000 0.000000 1.000000 setrgbcolor
fill
grestore
stroke
45.000000 20.000000 moveto
45.000000 20.000000 lineto
93.788611 61.872582 lineto
169.682006 152.310528 lineto
229.312531 199.001729 lineto
278.101142 163.864355 lineto
348.573580 140.581455 lineto
381.099321 118.517582 lineto
424.466975 83.726793 lineto
467.834629 20.000000 lineto
467.834629 20.000000 lineto
467.834629 20.000000 lineto
424.466975 83.991448 lineto
381.099321 142.485446 lineto
348.573580 181.762230 lineto
278.101142 224.974879 lineto
229.312531 284.865724 lineto
169.682006 216.426059 lineto
93.788611 81.350302 lineto
45.000000 20.000000 lineto
closepath
gsave
1.000000 1.000000 0.000000 setrgbcolor
fill
grestore
stroke
45.000000 20.000000 moveto
45.000000 20.000000 lineto
93.788611 81.350302 lineto
169.682006 216.426059 lineto
229.312531 284.865724 lineto
278.101142 224.974879 lineto
348.573580 181.762230 lineto
381.099321 142.485446 lineto
424.466975 83.991448 lineto
467.834629 20.000000 lineto
467.834629 20.000000 lineto
467.834629 20.000000 lineto
424.466975 84.406699 lineto
381.099321 175.163763 lineto
348.573580 237.947237 lineto
278.101142 308.307730 lineto
229.312531 402.000000 lineto
169.682006 303.868295 lineto
93.788611 107.914508 lineto
45.000000 20.000000 lineto
closepath
gsave
1.000000 1.000000 1.000000 setrgbcolor
fill
grestore
stroke
showpage
